[
    "찐마켓",
    "zzinmarket",
    "zzin",
    "전체",
    "가방",
    "의류",
    "신발",
    "시계",
    "기타",
    "새상품",
    "중고",
    "assman",
    "FUCK",
    "fuckyou",
    "ass",
    "bitch",
    "boji",
    "cum",
    "SEX",
    "sex하자",
    "sex해",
    "SEXY",
    "voGi",
    "voji",
    "vulva",
    "WN",
    "가슴만져",
    "가슴빨아",
    "가슴빨어",
    "가슴조물락",
    "가슴주물럭",
    "가슴쪼물딱",
    "가슴쪼물락",
    "가슴핧아",
    "가슴핧어",
    "강간",
    "강간한다",
    "개가튼년",
    "개가튼뇬",
    "개같은년",
    "개걸레",
    "개고치",
    "개너미",
    "개년",
    "개놈",
    "개라슥",
    "개보지",
    "개부달",
    "개부랄",
    "개불랄",
    "개새끼",
    "개씨발",
    "개씨블",
    "개씨발넘",
    "개씨발자슥",
    "개자식",
    "개자지",
    "개좆",
    "개지랄",
    "개후라년",
    "개후라들놈",
    "개후라새끼",
    "개객끼",
    "개객끼!",
    "ilovemobigame",
    "ilovemobilegame",
    "Jaji",
    "penis",
    "개새끠",
    "pennis",
    "개생캬",
    "개시발",
    "pussy",
    "개씁블",
    "개씁자지",
    "suck",
    "개작두넘",
    "개작두년",
    "개잡지랄",
    "개젓가튼넘",
    "개조카튼",
    "개죶",
    "개지랄넘",
    "개지랄놈",
    "걔잡지랄",
    "거시기",
    "걸레같은년",
    "걸레핀년",
    "게부럴",
    "게지랄놈",
    "그지야",
    "깔딱",
    "깝치",
    "깨쌔끼",
    "꺼져",
    "꼴깝",
    "꼴받냐",
    "내씨발",
    "내버지",
    "내조지",
    "너거애비",
    "느그매",
    "니기미",
    "니미",
    "니미랄",
    "니미럴",
    "니아비",
    "니애미",
    "개보지년",
    "니애뷔",
    "니할애비",
    "님KIN",
    "님즐",
    "닥쳐",
    "닳은년",
    "대가리",
    "덜은새끼",
    "돈년",
    "돈새끼",
    "돌으년",
    "돌은넘",
    "돌은새끼",
    "개붕알",
    "뒷치기",
    "등신",
    "개새",
    "따알쳐라",
    "딸딸이",
    "개색히",
    "딸쳐",
    "딸쳐봐",
    "딸칠래",
    "또라이",
    "똘똘이",
    "똥구녁",
    "띠발",
    "띠발뇬",
    "띠불",
    "띠블넘",
    "개썅",
    "띠부라알",
    "개쓰래기",
    "띠불색히",
    "개쓰레기",
    "띠이발년아",
    "개씁년",
    "막대쑤셔줘",
    "막대핧아줘",
    "개씹",
    "망나니",
    "미친넘",
    "미친년",
    "미친놈",
    "미친눔",
    "미친새끼",
    "미티넘",
    "미틴것",
    "개자",
    "개잡년",
    "미친쉐이",
    "개졎",
    "밥팅",
    "백보지",
    "버따리자지",
    "버지구녕",
    "버지구멍",
    "버지냄새",
    "버지뚫어",
    "버지벌려",
    "버지쑤셔",
    "걔잡년",
    "버짓물",
    "벌창같은년",
    "걸래년",
    "벵신",
    "병신",
    "병신세리",
    "병신셰리",
    "걸레년",
    "병신새끼",
    "병신씨발",
    "보지",
    "보지녀",
    "보지물",
    "보지빨아",
    "보지빨어",
    "보지털",
    "보지틀래기",
    "보지핧아",
    "보지핧어",
    "보짓물",
    "게세끼",
    "보지구녕",
    "보지구멍",
    "보지벌려",
    "보지벌리",
    "보지벌리자",
    "보지털뽑아",
    "게자식",
    "귀두",
    "난자마셔",
    "난자먹어",
    "난자핧아",
    "내꺼빨아",
    "내꺼핧아",
    "내미랄",
    "내자지",
    "부랄",
    "내잠지",
    "불알",
    "붕신",
    "붕알",
    "누나강간",
    "뷩딱",
    "븅신",
    "빙띤",
    "빙신",
    "빠구리",
    "빠가십새",
    "빠가씹새",
    "빠구링",
    "니씨브랄",
    "뻑큐",
    "사까시",
    "상년",
    "니애비",
    "성교",
    "성교해",
    "성폭행",
    "성교하자",
    "성인",
    "니좆",
    "섹스",
    "동생강간",
    "뒈져",
    "쉐끼",
    "뒤져라",
    "쉬팔",
    "쉬밸년",
    "시발",
    "시발년",
    "시발놈",
    "시발새끼",
    "시방새",
    "시팔넘",
    "시팔년",
    "시팔놈",
    "시팔새끼",
    "딸따리",
    "시팍새끼",
    "십녀",
    "십새",
    "십세이",
    "십셰리",
    "십탱",
    "십팔새끼",
    "십부럴",
    "딸치",
    "띠부랄",
    "띠불년",
    "싸가지",
    "띱새",
    "쌍년",
    "쌍놈",
    "쌍보지",
    "쌍쌍보지",
    "쌕스",
    "쌕쓰",
    "썅년",
    "썅뇬",
    "썅늠",
    "쓰바새끼",
    "쓰벌",
    "쓰파",
    "씨뎅",
    "씨발",
    "씨발년",
    "씨발롬",
    "씨뱅가리",
    "씨벌",
    "씨부랄",
    "씨불알",
    "씨블",
    "씨섹끼",
    "씨파넘",
    "씨팔",
    "씨퐁넘",
    "씨퐁뇬",
    "씨퐁보지",
    "씨퐁자지",
    "막간년",
    "맛간년",
    "맛없는년",
    "맛이간년",
    "씨발병신",
    "미칀",
    "미친",
    "미친구녕",
    "씨벌쉐이",
    "미친구멍",
    "씨븡새끼",
    "미친씨부랄",
    "씨파악",
    "씨팍새끼",
    "씨팍세끼",
    "미튄",
    "씨퐉",
    "씹년",
    "씹물",
    "씹보지",
    "씹부랄",
    "씹빵구",
    "씹뽀지",
    "씹새",
    "씹새끼",
    "씹세",
    "씹쌔끼",
    "씹자지",
    "씹지랄",
    "씹창",
    "씹탱",
    "씹탱이",
    "바주카자지",
    "버지따먹기",
    "씹알생키야",
    "버지뜨더",
    "버지물마셔",
    "버지벌료",
    "아씨",
    "버지빨아",
    "애무",
    "애미",
    "애비",
    "버지빨어",
    "애미개보지",
    "애미보오지",
    "애미좃보지",
    "애미후장",
    "버지썰어",
    "버지털",
    "양아치",
    "버지핧아",
    "버짓물마셔",
    "엄창",
    "엄마보오지",
    "에미",
    "에비",
    "염병",
    "염병할",
    "염뵹",
    "벗어",
    "염병처먹을",
    "염붕쳐먹을",
    "염비영",
    "엿",
    "엿먹어라",
    "오르가즘",
    "병닥",
    "병딱",
    "요년",
    "욕지리",
    "우미쑤셔",
    "유두",
    "보지따먹기",
    "유발조물락",
    "유방만져",
    "유방빨아",
    "유방주물럭",
    "유방쪼물딱",
    "유방쪼물럭",
    "유방핧아",
    "유방핧어",
    "보지뚫어",
    "이년",
    "인막녀",
    "자기핧아",
    "자지",
    "자지빨아",
    "자지빨어",
    "자지털",
    "자지핧어",
    "보지뜨더",
    "자지구녕",
    "자지구멍",
    "자지꽂아",
    "자지쑤셔",
    "자지짤라",
    "보지머리박기",
    "보지물마셔",
    "보지박어",
    "보지벌료",
    "잠지",
    "보지보지",
    "잡것",
    "잡년",
    "잡놈",
    "보지에자지껴",
    "재섭",
    "저년",
    "점물",
    "보지에자지너",
    "젓같내",
    "젓까",
    "젓냄새",
    "젓대가리",
    "젓떠",
    "젓마무리",
    "젓만이",
    "젓물",
    "젓밥",
    "젓가튼쉐이",
    "보지자지",
    "젓만",
    "젓물냄새",
    "보지정액",
    "보지쥐어짜",
    "보지찌져",
    "보지찢어",
    "젖탱이",
    "젖같은",
    "젖까",
    "제섭",
    "조또",
    "조지",
    "보지털어",
    "보지핧아줘",
    "조까고",
    "조물락",
    "족같내",
    "족까",
    "족까내",
    "존나",
    "존니",
    "존.나",
    "졸라",
    "좀마니",
    "좀물",
    "좀쓰레기",
    "보짓물마셔",
    "좃간년",
    "좃까",
    "좃깟네",
    "좃냄새",
    "좃넘",
    "좃대가리",
    "좃도",
    "좃또",
    "좃마무리",
    "좃만아",
    "좃만이",
    "좃물",
    "좃부랄",
    "좃빠네",
    "좃까리",
    "좃만한것",
    "좃만한쉐이",
    "붜지",
    "좃물냄새",
    "븅쉰",
    "빙신쉐이",
    "좆같은놈",
    "좆같은새끼",
    "좆까",
    "좆까라",
    "좆나",
    "좆년",
    "좆도",
    "좆만아",
    "좆만한년",
    "좆만한놈",
    "좆만한새끼",
    "좆먹어",
    "좆물",
    "좆밥",
    "좆빨아",
    "좆새끼",
    "좆털",
    "빠굴",
    "빠굴이",
    "삿까시",
    "좋만한것",
    "주글년",
    "주길년",
    "색갸",
    "쥐새끼",
    "지랄",
    "지럴",
    "지뢀",
    "색키",
    "쪼다새끼",
    "창남",
    "창뇨",
    "창녀",
    "창녀버지",
    "챵녀",
    "세꺄",
    "처먹고",
    "처먹을",
    "쳐먹고",
    "쳐쑤셔박어",
    "세끼",
    "캐년",
    "캐놈",
    "캐뇬",
    "캐새끼",
    "캐씹",
    "캐졎",
    "캐좆",
    "크리토리스",
    "클리토리스",
    "섹스하자",
    "패스맨",
    "페니스",
    "한번빠구리",
    "한빠구리",
    "한섹스",
    "한섹시",
    "항문쑤셔",
    "항문수셔",
    "섹스해",
    "허벌보지",
    "허벌자지",
    "허젚",
    "허졉",
    "허좁",
    "허덥",
    "섹히",
    "허벌자식",
    "허섭",
    "허접",
    "헐렁보지",
    "혀로보지핧기",
    "호냥년",
    "호로",
    "호로새끼",
    "호로자슥",
    "호로자식",
    "호루자슥",
    "호좁",
    "쉑갸",
    "호졉",
    "후라덜넘",
    "후장",
    "시댕이",
    "후장꽂아",
    "후장뚫어",
    "흐접",
    "흐젚",
    "흐졉",
    "시밸",
    "시파",
    "십버지",
    "십부랄",
    "십세리",
    "십자석",
    "십자슥",
    "십지랄",
    "십창녀",
    "십탱구리",
    "십탱굴이",
    "쌔끼",
    "쎅스",
    "쎅쓰",
    "쒸바",
    "쓰발",
    "쓰브랄쉽세",
    "씌발",
    "씌팔",
    "씨가랭넘",
    "씨가랭년",
    "씨가랭놈",
    "씨댕",
    "씨댕이",
    "4kkasi",
    "Aaron",
    "Agbe",
    "anal",
    "Anima",
    "anus",
    "Aqueum",
    "asiangirl",
    "aslangirl",
    "awoodong",
    "bacastv",
    "Baren",
    "bbagoori",
    "bbaguri",
    "bbagury",
    "bdsm",
    "Benedict",
    "Berih",
    "Bibie",
    "binya",
    "biotch",
    "biznatch",
    "bogy",
    "bojy",
    "bozi",
    "bozy",
    "bo지",
    "bullshit",
    "bung",
    "bunsec",
    "byuntae",
    "C8",
    "ccibal",
    "ccipal",
    "ccival",
    "cheesedick",
    "chink",
    "circlejerk",
    "clit",
    "cock",
    "Cocksuckingbitch",
    "Cocksuckingpig",
    "comesek",
    "comesk",
    "condem",
    "cunnilingus",
    "cunt",
    "damn",
    "Dampier",
    "dduk",
    "dick",
    "digitalplay",
    "dike",
    "dildo",
    "dipshit",
    "doobie",
    "douche",
    "dyke",
    "efreet",
    "ejaculation",
    "ero",
    "Ethel",
    "씨방새",
    "fag",
    "foreskin",
    "fcuk",
    "fuckinghomo",
    "funter",
    "funtersquare",
    "furburger",
    "fvck",
    "씨방세",
    "Gaurun",
    "Gayassbitch",
    "Gaywhore",
    "Geken",
    "Gigas",
    "gook",
    "GRANTURAM",
    "hacker",
    "hacking",
    "homo",
    "homosexual",
    "honky",
    "hooker",
    "horny",
    "illhvhl",
    "jackass",
    "jackoff",
    "jamji",
    "jawi",
    "jazi",
    "jazy",
    "ja위",
    "ja지",
    "jgirls",
    "jiral",
    "jot",
    "Kissmyass",
    "masterbate",
    "masterbating",
    "masterbator",
    "masturbating",
    "masturbator",
    "Motherfucker",
    "NEGRO",
    "nigga",
    "nigger",
    "nomo",
    "nude",
    "oral",
    "Ovis",
    "씨밸",
    "poontang",
    "porno",
    "prno",
    "prostitute",
    "pussydick",
    "pussylips",
    "queer",
    "Siba",
    "sibal",
    "sipal",
    "Siska",
    "sival",
    "slut",
    "slutty",
    "sperm",
    "ssibal",
    "ssibbal",
    "ssival",
    "titty",
    "vagina",
    "vibrator",
    "whore",
    "wigger",
    "x물",
    "x섹스",
    "x위",
    "x지",
    "x털",
    "yadong",
    "yasa",
    "ya설",
    "zasal",
    "zazi",
    "zot",
    "씨벌년",
    "씨부",
    "가튼년",
    "갈보",
    "같이자자",
    "씨부럴",
    "씨불",
    "개쌍년",
    "개쌍연",
    "개썅년",
    "개썅연",
    "씨브럴",
    "개같은",
    "개걸래",
    "개뇨나",
    "개뇬",
    "개뇸",
    "개뇽",
    "개뇽아",
    "개또라이",
    "씨블년",
    "개불알",
    "개삭년",
    "개삭련",
    "개샥년",
    "개십년",
    "개쌍영",
    "개씹창",
    "개씹팔",
    "씨퐁",
    "개잡뇬",
    "개호로년",
    "개후장",
    "걔가튼년",
    "걔년",
    "걔잡뇬",
    "거지년",
    "걸래",
    "걸래가튼뇬",
    "걸래같은년",
    "걸래넘",
    "걸래놈",
    "걸레",
    "걸레가튼녕",
    "걸뢰년",
    "게년",
    "게같은년",
    "게걸래",
    "게걸레",
    "게뇨나",
    "게뇬",
    "게뇽",
    "게보쥐",
    "게보지",
    "게새끼",
    "게십냔",
    "게쌔기",
    "게쓰래기",
    "게쓰레기",
    "게씨발넘",
    "게자쥐",
    "게자지",
    "게잡년",
    "게잡뇬",
    "게호로년",
    "계뇬",
    "계뇽",
    "고추",
    "고환",
    "고자",
    "고쟈",
    "고추짱",
    "고패티쉬",
    "구녕",
    "그룹섹스",
    "그지같은년",
    "그지년",
    "근친",
    "근친상간",
    "나체",
    "난교",
    "씹미랄",
    "남성자위기구",
    "남자먹기",
    "씹버지",
    "넣고싸고",
    "누드",
    "누드몰카",
    "누드사진",
    "누드섹스",
    "누드쇼",
    "누드화보",
    "니보지",
    "씹브랄",
    "니앰",
    "니어미",
    "니에미",
    "니에비",
    "니엠",
    "니조개",
    "니조게",
    "니죠때",
    "니죶데",
    "니주가리",
    "다리벌려",
    "다리벌리",
    "대딸",
    "대주까",
    "대준다",
    "대줄께",
    "대줄년",
    "더러운년",
    "더티섹스",
    "도쿄섹스",
    "돌림빵",
    "돼지년",
    "드러운년",
    "디지털플레이",
    "디지털섹스조선",
    "따먹기",
    "따먹는",
    "따먹어",
    "따먹혀줄래",
    "따이고시퍼",
    "딸따뤼",
    "딸치는",
    "떡걸",
    "떡쳐라",
    "떡치",
    "떡치고",
    "떡치기",
    "똥구멍",
    "똥고",
    "똥꼬",
    "똥꾸녕",
    "라이브섹스",
    "룸sex",
    "룸섹",
    "룸섹스",
    "룸쎅",
    "리얼섹스플레이",
    "마스터베이션",
    "망할년",
    "매춘",
    "매춘부",
    "몸뚱이줄께",
    "몸보여",
    "몸안에사정",
    "몸파는",
    "몸파라",
    "무료망가",
    "무료몰카",
    "무료성인",
    "무료성인동영상",
    "무료성인만화",
    "무료성인방송",
    "무료성인싸이트",
    "무료성인엽기",
    "무료성인영화",
    "무료성인정보",
    "무료섹스",
    "무료섹스동영상",
    "무료섹스사이트",
    "무료야설",
    "무료포르노",
    "무료포르노동영상",
    "무삭제원판",
    "무전망가",
    "씹알",
    "미소녀섹스가이드",
    "미스터콘돔",
    "미씨촌",
    "씹자석",
    "미친뇬",
    "미친뇸",
    "미친뇽",
    "미칫년",
    "밑구녕",
    "밑구녕빨기",
    "밑친년",
    "바구리",
    "바이브레이터",
    "씹자슥",
    "박고빼고",
    "박고싶다",
    "박고싶퍼",
    "박아줄게",
    "박아줄께",
    "박을께",
    "박을년",
    "발기",
    "백보디",
    "버즤",
    "버지",
    "버쥐",
    "버지물",
    "씹창녀",
    "씹탱굴이",
    "씹팔",
    "아가리",
    "번색",
    "번섹",
    "번쌕",
    "번쎅",
    "벌렁거려",
    "벗은몸",
    "벗을",
    "보오지",
    "보쥐",
    "애미랄",
    "애미보지",
    "애미씨뱅",
    "애미자지",
    "보짖",
    "보찌",
    "보털",
    "보G",
    "보z",
    "보즤",
    "애미잡년",
    "애미좃물",
    "보지걸",
    "보지나라",
    "보지년",
    "보지뇬",
    "보지당",
    "어드민",
    "어미강간",
    "보지벌",
    "어미따먹자",
    "어미쑤시자",
    "보짓",
    "보짓년",
    "보짓년아",
    "보짖물",
    "본디지",
    "봉알",
    "뵤즤",
    "뵤지",
    "뵤g",
    "뵤뒤",
    "뵤듸",
    "뵤쥐",
    "뵤짓",
    "뵤징",
    "뵨태",
    "뵺지",
    "부럴",
    "부카케",
    "붕딱",
    "붕딲",
    "붕뛴",
    "붜러지",
    "블알",
    "븡알",
    "빠걸",
    "빠구",
    "빠그릐",
    "빠꾸뤼",
    "빠꾸리",
    "빠도리",
    "빠라",
    "빠라조",
    "빠라줘",
    "빠러",
    "빡촌",
    "빤스",
    "빤쮸",
    "빤쮸리",
    "빨게해도",
    "빨고시퍼",
    "빨고시포",
    "빨고싶다",
    "빨고싶어",
    "빨고파",
    "빨구시퍼",
    "빨구싶나",
    "빨구싶어",
    "빨기",
    "빨께",
    "빨라줘",
    "빨아",
    "빨아도",
    "빨아라",
    "빨아봐",
    "빨아봐요",
    "빨아죠",
    "빨아주고싶어",
    "빨아줄게",
    "빨아줄까",
    "빨아줄께",
    "빨아줄꼐",
    "빨아줄래",
    "빨아줄수있어",
    "빨아줘",
    "빨어",
    "빨어핥어박어",
    "빨자",
    "빨자좃",
    "빨자좆",
    "빨통",
    "빽보디",
    "빽보비",
    "빽보지",
    "빽자지",
    "뺘구리",
    "뺘그릐",
    "뺘그릥",
    "뺘그리",
    "뺙그리",
    "뻐큐",
    "뻐킹",
    "뽀르노",
    "뽀지",
    "뽀쥐",
    "뽀즤",
    "뽀쮜",
    "뽕알",
    "뽜굴",
    "뿌랄",
    "뿌럴",
    "뿔알",
    "뿡알",
    "왕버지",
    "사앙뉸",
    "사창가",
    "사까리",
    "사까쉬",
    "사까치",
    "사삼삼",
    "사이버섹스",
    "사카시",
    "사카치",
    "삿가시",
    "왕자지",
    "삿깟시",
    "색끼",
    "색걸",
    "색골",
    "색남",
    "색녀",
    "색마",
    "색수",
    "색스",
    "색스코리아",
    "색쓰",
    "색파트너",
    "생리",
    "생뤼",
    "생식기",
    "샤앙녀",
    "샤앙년",
    "샤불년",
    "샥년들",
    "샥년아",
    "샥련",
    "샧년",
    "샧뇽",
    "샫년",
    "샵년",
    "샹년",
    "샹넘",
    "샹논",
    "샹놈",
    "샹뇬",
    "샹뇽",
    "샹늠",
    "샹렪",
    "샹악년",
    "성경험",
    "성관계",
    "왕잠지",
    "성감대",
    "왕털버지",
    "성교제",
    "성기",
    "성기구",
    "성매매",
    "성방",
    "성보조기구",
    "성상담",
    "성생활",
    "성섹스",
    "성욕구",
    "성인대화방",
    "성인동영상",
    "성인드라마",
    "성인만화",
    "성인사이트",
    "성인자료실",
    "성인갤러리",
    "성인게시판",
    "성인게임",
    "성인공간",
    "성인그리고섹스",
    "성인극장",
    "성인나라",
    "성인놀이문화",
    "성인누드",
    "성인뉴스",
    "성인대화",
    "성인만화나라",
    "성인만화천국",
    "성인망가",
    "성인몰",
    "성인무료",
    "성인무료동영상",
    "성인무료사이트",
    "성인무료영화",
    "성인무비",
    "성인물",
    "성인미스랭크",
    "성인미팅방",
    "성인방",
    "성인방송",
    "성인방송국",
    "성인방송안내",
    "성인별곡",
    "성인비됴",
    "성인비디오",
    "성인사이트소개",
    "성인사진",
    "성인상품",
    "성인생방송",
    "성인샵",
    "성인서적",
    "성인성교육스쿨",
    "성인소녀경",
    "성인소라가이드",
    "성인소설",
    "성인쇼",
    "성인쇼핑",
    "성인쇼핑몰",
    "성인시트콤",
    "성인싸이트",
    "성인애니",
    "성인애니메이션",
    "성인야동",
    "성인야사",
    "성인야설",
    "성인야캠",
    "성인야화",
    "성인에로무비",
    "성인에로영화",
    "성인엽기",
    "성인영상",
    "성인영화",
    "성인영화관",
    "성인영화나라",
    "성인영화방",
    "성인영화세상",
    "성인영화천국",
    "성인와레즈",
    "성인용",
    "성인용품",
    "성인용품도매센터",
    "성인용품샵",
    "성인용품에로존",
    "성인용품전문쇼핑몰",
    "성인용품할인매장",
    "성인유머",
    "성인이미지",
    "성인일본",
    "성인자료",
    "성인잡지",
    "성인전용관",
    "성인전용정보",
    "성인정보",
    "성인채팅",
    "성인챗",
    "성인천국",
    "성인체위",
    "성인카툰",
    "성인카페",
    "성인컨텐츠",
    "성인클럽",
    "성인포탈",
    "성인플래쉬",
    "성인플래시",
    "성인화상",
    "성인화상채팅",
    "성일플래쉬",
    "성체위",
    "성체험",
    "성추행",
    "성충동",
    "성클리닉",
    "성태크닉",
    "성테크닉",
    "성폭력",
    "성행위",
    "세게빨아",
    "세레브루미",
    "세븐누드닷컴",
    "섹쑤",
    "섹S",
    "섹걸",
    "섹걸닷컴",
    "섹골",
    "섹골닷컴",
    "섹귀",
    "섹기",
    "섹뀌",
    "섹끠",
    "섹끼",
    "섹남",
    "섹녀",
    "섹뜌",
    "섹뜨",
    "섹마",
    "섹무비",
    "섹보지",
    "섹소리",
    "섹수",
    "섹쉬",
    "섹슈",
    "섹스년",
    "왕털보지",
    "섹시갤러리",
    "섹시걸",
    "섹시게이트",
    "섹시나라",
    "섹시나이트",
    "섹시누드",
    "섹시뉴스",
    "섹시매거진",
    "섹시맵",
    "섹시무비",
    "섹시사진",
    "섹시샵",
    "섹시성인용품",
    "섹시섹스코리아",
    "섹시스타",
    "섹시신문",
    "섹시씨엔엔",
    "섹시아이제이",
    "섹시에로닷컴",
    "섹시엔몰",
    "섹시연예인",
    "섹시재팬",
    "섹시조선",
    "섹시존",
    "섹시짱",
    "섹시촌",
    "섹시코디",
    "섹시코리아",
    "섹시클럽",
    "섹시클릭",
    "섹시팅하자",
    "섹시팬티",
    "섹쓰",
    "섹티쉬",
    "섹티즌",
    "섹파트너",
    "섹하고",
    "섹하구",
    "섹하자",
    "섹하장",
    "섹할",
    "섹해",
    "섹휘",
    "왕털자지",
    "섺스",
    "섻스",
    "셍뤼",
    "셍리",
    "소태환",
    "속궁합",
    "쇼걸클럽",
    "쇼우망가",
    "쇼킹동영상",
    "쇼킹섹스",
    "쇼킹섹스코리아",
    "쇼킹에로",
    "수간",
    "수음",
    "숙모보지",
    "스와핑",
    "스왑",
    "스쿨걸",
    "스트립",
    "스트립쇼",
    "스트립쑈",
    "스패킹",
    "스팽킹",
    "습알년",
    "십얄년",
    "십좌지",
    "십질",
    "십찔",
    "십창",
    "십챵",
    "십촹",
    "십팔년",
    "십팔련",
    "왕털잠지",
    "십팔연",
    "십할년",
    "십할련",
    "싶년들",
    "싶알년",
    "싶질",
    "싶창",
    "싸까쉬",
    "싸까시",
    "싸발년",
    "싸줄께",
    "쌍넘",
    "쌍뇸",
    "쌍뇽",
    "쌍뉸",
    "쌍넌",
    "쌍념",
    "쌍뇬",
    "유방",
    "쌕걸",
    "쌕수",
    "쌕쉬",
    "쌕시",
    "쌕쑤",
    "쌩보지",
    "쌩보지쑈",
    "쌩아다",
    "쌩포르노",
    "씨바라",
    "씨밝",
    "유두빨어",
    "씨뱔",
    "유두핧어",
    "씨벨년",
    "씨볼",
    "씨봉",
    "씨불년",
    "씨불얼",
    "씨빨",
    "씨쁠",
    "씨알",
    "씨앙넘",
    "씨앙년",
    "씨앙놈",
    "씨앙눔",
    "씨양넘",
    "씨양년",
    "씨양놈",
    "씨양눔",
    "씨양념",
    "씨할",
    "씨누드21",
    "씨댕년",
    "씨바랄",
    "씨발뇬",
    "씨발뇽",
    "씨밝년",
    "씨뱅놈",
    "씨뱅아",
    "씨뱅이",
    "씨봉알",
    "씨뺄뇬아",
    "씨입년",
    "씨입뇬",
    "씨팔넘",
    "씨팔년",
    "씨팔놈",
    "씨팔뇬",
    "씨팔뇸",
    "씨퍍",
    "씨퍐",
    "씨퍓",
    "씨펄",
    "씨펼",
    "씷앙년",
    "씸발년",
    "씹놈",
    "씹벌",
    "씹팔년",
    "씹팔련",
    "씹팔연",
    "씹할",
    "씹할련",
    "씹할연",
    "씹8",
    "씹넘",
    "씹녀",
    "씹뇬",
    "씹뇸",
    "씹다발이",
    "씹밸",
    "씹보지년",
    "씹빡",
    "씹빨",
    "씹뻘",
    "씹뿔",
    "씹쁠",
    "씹세끼",
    "씹세이",
    "씹셍아",
    "씹쉐",
    "씹쉐리",
    "씹쉐이",
    "씹쉑",
    "씹쉑캬",
    "씹쉑히",
    "씹시끼",
    "씹쌔",
    "씹쌔기",
    "씹쌔꺄",
    "씹쌔키",
    "씹쎄",
    "씹쎄끼",
    "씹쒜",
    "씹씨키",
    "씹연",
    "씹자지년",
    "씹쥘",
    "씹지럴",
    "씹질",
    "씹탱구리",
    "씹탱꾸리",
    "씹텡",
    "씹팍쉐리",
    "씹팔놈",
    "씹팔쉐리",
    "씹팔쌔끼",
    "씹펄",
    "씹풀",
    "씹할년",
    "씹할놈",
    "씹활",
    "씺퍌",
    "씻발",
    "씻벌",
    "씻끼",
    "씻밸",
    "씻벨",
    "씻볼",
    "씻불",
    "씻빨",
    "씻뻘",
    "씻뽈",
    "씻뿔",
    "씻팔",
    "씻팡",
    "씻퍌",
    "씻펄",
    "씻펑",
    "씻퐁",
    "씾팔",
    "앀악",
    "앂년",
    "앂팔",
    "아다",
    "아리랑치기",
    "아마걸포르노",
    "알몸",
    "알몸공개",
    "알몸사진",
    "알몸쇼",
    "알바걸",
    "애년",
    "애믜",
    "애븨",
    "애자",
    "애좌",
    "애널",
    "애널입4",
    "애로영화",
    "애마부인",
    "자지넣자",
    "자지뜨더",
    "자지뜯어",
    "애액",
    "애자년",
    "애자놈",
    "애자매",
    "애쟈",
    "앰창",
    "앰병",
    "야녀",
    "야덩",
    "야동",
    "야설",
    "야섹",
    "야시걸",
    "야시녀",
    "야시룸",
    "야시캠",
    "야시코리아",
    "야애니",
    "야캠",
    "야한동영상",
    "야한사딘",
    "야한사진",
    "양년",
    "얘자",
    "어미",
    "자지박어",
    "엄마젓",
    "자지빨아줘",
    "에로팬티",
    "에믜",
    "에미젓",
    "엑스노브라",
    "엑스모텔",
    "엑스터시",
    "엠창",
    "여성성인용품",
    "여성자위기구",
    "여자먹고",
    "여자몸",
    "여자보지",
    "연병할년",
    "엽기에로",
    "엽기적인섹스",
    "영자씨키",
    "오나니",
    "오랄",
    "오럴",
    "오럴섹스",
    "오렌지야동",
    "오르가슴",
    "오르논",
    "오마이에로",
    "오빠아파닷컴",
    "올가즘",
    "옷버그",
    "옷벗",
    "옷벗기기",
    "옷벗기기게임",
    "왕가슴",
    "왕보지",
    "자지쓰레기",
    "자지정개",
    "원조교제",
    "원조알바",
    "원조교재",
    "유듀",
    "유모",
    "자지핧아",
    "자지핧아줘",
    "유방크",
    "육봉",
    "육구자세",
    "육실헐",
    "육씨랄년",
    "육씨랄놈",
    "윤간",
    "윤락",
    "음경",
    "음란",
    "음마성전",
    "음모",
    "음박학염",
    "음부",
    "음순",
    "음액",
    "음욕",
    "음위",
    "음탕",
    "입사후장",
    "입안사정",
    "자궁",
    "자위",
    "작은보지",
    "잠지뚫어",
    "자g",
    "자ji",
    "자살",
    "자아지",
    "자위기구",
    "자위남",
    "자위녀",
    "자위씬",
    "자위용품",
    "자위중",
    "자위코리아",
    "자위하자",
    "자위할래",
    "자위행위",
    "자쥐",
    "자쥐털",
    "자즤",
    "잠지물마셔",
    "잠지털",
    "잠짓물마셔",
    "잡쓰레그",
    "잘빨아",
    "잡탱년",
    "잡뇬",
    "잡뇸",
    "잡늠",
    "잡밥",
    "잦털",
    "재팬마나",
    "재팬만화",
    "재팬팬티",
    "쟈g",
    "쟈지",
    "저뇬",
    "저즌팬티",
    "적셔줄까",
    "적셔줄께",
    "적셔줄래",
    "전신안마",
    "젓까는",
    "젓꺽쥐",
    "젓꺽지",
    "젓꼭쥐",
    "젓꼭지",
    "젓나",
    "젓나게",
    "젓빠지게",
    "젓은팬티",
    "젓탱이",
    "정박아",
    "정사",
    "정신병",
    "정액",
    "정액마셔",
    "정액먹어",
    "정액발사",
    "정액짜",
    "젖가슴",
    "정액핧아",
    "젖가",
    "젖꺽쥐",
    "젖꺽지",
    "젖꼭쥐",
    "젖꼭지",
    "젖물",
    "젖은팬티",
    "젖통",
    "젛빠는",
    "조건만남",
    "조랄",
    "조뢀",
    "조루",
    "정자마셔",
    "조털",
    "정자먹어",
    "정자핧아",
    "조개넓은년",
    "조껀만남",
    "조빠",
    "조빠라",
    "조옷",
    "조옷밥년",
    "조옷빯아",
    "조개따조",
    "조개마셔줘",
    "족같네",
    "족같은",
    "족딸",
    "존년",
    "존만한년",
    "졷까",
    "졷따",
    "좀년",
    "좁밥",
    "좁빱",
    "좁년",
    "좁물",
    "좁뱝년",
    "조개벌려조",
    "좁빤다",
    "조개보지",
    "조개속물",
    "조개쑤셔줘?",
    "조개핧아줘?",
    "조까",
    "좃가튼",
    "좃가튼년",
    "좃가튼놈",
    "좃가튼뇽",
    "좃가튼늠",
    "좃같네",
    "좃같은",
    "좃같은년",
    "좃밥",
    "좃뱅이",
    "좃빠지게",
    "좃빱",
    "좃이나",
    "좄까",
    "좆가튼",
    "좁빠라라",
    "좆같다",
    "좆같아",
    "좆같은",
    "좆같은색키",
    "좆같은세끼",
    "좆같은쉐리",
    "좆같은쉑캬",
    "좆같은쉑키",
    "좆구녕",
    "좆구멍",
    "좆까는",
    "좆꼴려",
    "좆꼴리",
    "좆나게",
    "좆대가리",
    "좃가튼뇬",
    "좆만한",
    "좆만한뇽",
    "좆만한늠",
    "좆머거",
    "좆비비",
    "좆빠",
    "좆빠라",
    "좆빠러",
    "좆빠지게",
    "좆빨이",
    "좆뺑이",
    "좆삐리",
    "좆쑤시",
    "좆터래길",
    "좆헛물",
    "좇까",
    "좇또",
    "좇같은",
    "좇같은년",
    "좇도",
    "좇물",
    "좇빱",
    "좈같아",
    "죤나",
    "죤니",
    "죤만년",
    "죴같넴",
    "즉석만남",
    "지좆",
    "질질싸",
    "질퍽하게",
    "짜쥐",
    "짜쥐털",
    "짜즤",
    "짜지",
    "짜지털",
    "짬지",
    "짭년",
    "짭놈",
    "짭뇬",
    "쪼가리",
    "쪼빠라",
    "쪼빤다",
    "쫀물",
    "쫌물",
    "쫒갈",
    "쫒같",
    "찌찌",
    "창녀촌",
    "창녕",
    "창뇬",
    "챵년",
    "챵뇬",
    "처녀막",
    "체위",
    "체위동영상",
    "촹녀",
    "최음제",
    "카섹",
    "카섹스",
    "커닐링구스",
    "컴색",
    "컴섹",
    "컴쌕",
    "컴쎅",
    "코리아성인가이드",
    "코리아스트립닷컴",
    "코리아엑스파일",
    "코리아포로노",
    "코리안걸스",
    "콘끼그",
    "콘돔닥터",
    "콘돔몰",
    "콘돔사용",
    "콘돔예스",
    "콘돔피아",
    "쿤닐링구스",
    "쿨에로",
    "큰자지",
    "클럽에로",
    "패니스",
    "패티쉬우먼",
    "팰라치오",
    "팸돔",
    "팸섭",
    "퍼르노",
    "펀색",
    "펀섹",
    "펀터",
    "펀터스퀘어",
    "페미돔",
    "페티걸",
    "페티쉬러브",
    "페티쉬매거진",
    "페티쉬우먼",
    "페티쉬즘",
    "페티쉬코리아",
    "페팅",
    "펠라치오",
    "펠라티오",
    "펨돔",
    "펨둠",
    "펨섭",
    "폐니스",
    "폐티걸",
    "포르노",
    "포르노섹스",
    "폰x",
    "폰색",
    "폰섹",
    "폰섹스",
    "폰쉑",
    "폰쌕",
    "폰쎅",
    "핥아주께",
    "핥어",
    "핥을래",
    "핧아",
    "핧아줄께",
    "함대주까",
    "함대줄래",
    "함빨자",
    "항문",
    "헤로인",
    "화냥년",
    "화냥",
    "뻐킹걸",
    "좆또",
    "좆병신",
    "좃병신",
    "돌아이",
    "도라이",
    "레스비언",
    "망가",
    "병자",
    "보탱",
    "브라",
    "빠가",
    "뻐지",
    "섹시",
    "시삽",
    "썩을",
    "팔콤",
    "포르",
    "후라",
    "AC발",
    "ac팔",
    "ADMINISTRATOR",
    "ADULT",
    "ADULTSEXSHOP",
    "ADULTVIDEO",
    "ADULTZONE",
    "ALBA",
    "annal",
    "anul",
    "APFHD",
    "AQUABALL",
    "ARB구함",
    "ASSHOLE",
    "BACKBOJITV",
    "BACKBOJYTV",
    "BEHEADING",
    "BESTBOZI",
    "BOJYTY",
    "BOZICAM",
    "BUNSEK",
    "buns다",
    "BYUNTAESEX",
    "bz",
    "callgirl",
    "CARPORNO",
    "CARSEX",
    "cbal",
    "CBT",
    "CE발",
    "CIBAL",
    "CIPAL",
    "CIVAL",
    "COMSEK",
    "CONDOM",
    "COSEX",
    "Cpal",
    "cval",
    "C댕",
    "C발",
    "c발넘",
    "c발년",
    "c발놈",
    "c발섹",
    "c발쉑",
    "c발아",
    "c밸",
    "c벌",
    "c벌넘",
    "c벨",
    "c부",
    "c부랄",
    "c불",
    "c불넘",
    "c불놈",
    "c불늠",
    "c블",
    "c블넘",
    "c블놈",
    "c블늠",
    "c빨넘",
    "C팔",
    "DAMOIMSEX",
    "dog새",
    "DOUMI",
    "D랄",
    "D질래",
    "GORE",
    "G랄",
    "g럴",
    "g롤",
    "g룰",
    "helper",
    "HENTAI",
    "ho로",
    "ho로쉐끼",
    "HTTP",
    "ILOVESEX",
    "jizz",
    "JI랄",
    "JOUNGYANG",
    "JUNGYANG",
    "KOREA포르노",
    "WWW",
    "XXX비디오",
    "XXX포르노",
    "XX할",
    "x녀",
    "X대가리",
    "X동",
    "X등급",
    "X섹X스X해X",
    "x한",
    "X할",
    "ya동",
    "ya한",
    "zaji",
    "zazy",
    "ZOTTE",
    "가랑이",
    "가튼넘",
    "가튼놈",
    "간나",
    "갇은넘",
    "갇은년",
    "갇은놈",
    "갈아마실",
    "갈아먹을",
    "강간범",
    "같은넘",
    "같은년",
    "같은놈",
    "같은쌔",
    "같은자식",
    "같이잘",
    "개가든",
    "개가뜬",
    "개가턴",
    "개가툰",
    "개가튼",
    "개갇은",
    "개같",
    "개같은넘",
    "개같은놈",
    "개같은새뀌",
    "개기냐",
    "개깝",
    "개꼬치",
    "개너마",
    "개너므",
    "개너므새귀",
    "개너므새뀌",
    "개넌",
    "개넘",
    "개넘새뀌",
    "개넘쉐뤼",
    "개넘쉬끼",
    "개노마",
    "개놈아",
    "개눔",
    "개느마",
    "개늠",
    "개늠쉑",
    "개늠아",
    "개늠의새뀌",
    "개대감",
    "개도라이",
    "개때꺄",
    "개때끼",
    "개떼끼",
    "개라스",
    "개라슥아",
    "개랙기",
    "개망나니",
    "개박살",
    "개박쌀",
    "개발남아",
    "개발싸개",
    "개발자",
    "개발진",
    "개발팀",
    "개밥통",
    "개병슌",
    "개병신",
    "개보즤",
    "개부러럴",
    "개부럴",
    "개부뢀",
    "개부알",
    "개삭구",
    "개새기",
    "개새꺄",
    "개새뀌",
    "개새리",
    "개새야",
    "개새이",
    "개새킹",
    "개색",
    "개색기",
    "개색깅",
    "개색꺄",
    "개색끼",
    "개색들",
    "개색휘",
    "개샊",
    "개샛끼",
    "개샛키",
    "개샛킹",
    "개샛히",
    "개샜끼",
    "개생키",
    "개샠",
    "개샤끼",
    "개샤킥",
    "개샥",
    "개샹늠",
    "개세",
    "개세기",
    "개세끼",
    "개세리",
    "개세야",
    "개세이",
    "개세키",
    "개섹",
    "개섹들",
    "개섹히",
    "개섺",
    "개셃",
    "개셋키",
    "개셐",
    "개셰리",
    "개솩",
    "개쇄",
    "개쇄기",
    "개쇄끼",
    "개쇅",
    "개쇅갸",
    "개쇅기",
    "개쇅꺄",
    "개쇅끼",
    "개쇅캬",
    "개쇅키",
    "개쇗",
    "개쇗기",
    "개쇠리",
    "개쇸",
    "개쉐",
    "개쉐끼",
    "개쉐리",
    "개쉐이",
    "개쉐키",
    "개쉑",
    "개쉑갸",
    "개쉑기",
    "개쉑꺄",
    "개쉑끼",
    "개쉑이",
    "개쉑캬",
    "개쉑키",
    "개쉑히",
    "개쉢",
    "개쉨",
    "개쉬",
    "개쉬끼",
    "개쉬리",
    "개쉽",
    "개쉽새에끼",
    "개스끼",
    "개스키",
    "개습세",
    "개습쌔",
    "개싀기",
    "개싀끼",
    "개싀밸",
    "개싀킈",
    "개싀키",
    "개싏",
    "개싑창",
    "개싘",
    "개시끼",
    "개시퀴",
    "개시키",
    "개식끼",
    "개식히",
    "개십",
    "개십새",
    "개십팔",
    "개싯기",
    "개싯끼",
    "개싯키",
    "개싴",
    "개쌍넘",
    "개쌍놈",
    "개쌍눔",
    "개쌍늠",
    "개쌔",
    "개쌔꺄",
    "개쌔끼",
    "개쌕",
    "개쌕끼",
    "개쌕들",
    "개쌰깨",
    "좃보지",
    "개썅넘",
    "개썅놈",
    "개썅늠",
    "개쎄",
    "개쎅",
    "개쎅들",
    "개쎼키",
    "개쐐리",
    "개쒜",
    "개쒜끼",
    "개쒜리",
    "개쒝",
    "개쒝갸",
    "개쒝기",
    "개쒝꺄",
    "개쒝끼",
    "개쒝캬",
    "개쒝키",
    "개쒯",
    "개쒸",
    "개쒸빨놈",
    "개쒹기",
    "개쓉",
    "개쓰",
    "개쓰렉기",
    "개씀",
    "개씁",
    "개씁쌔",
    "개씁쎄",
    "개씌끼",
    "개씨끼",
    "개씨부럴",
    "개씨팔",
    "개씨팕",
    "개아이",
    "개양아",
    "개염창",
    "개욘",
    "개자석",
    "개자쉭",
    "개자슥",
    "개자싁",
    "개자쒹",
    "개자씩",
    "개작살",
    "개작쌀",
    "개잡",
    "개잡것",
    "개잡놈",
    "개젖",
    "개젗",
    "개졋",
    "개조또",
    "개조옷",
    "개족",
    "개좇",
    "개좌슥",
    "개좌식",
    "개좝",
    "좃빠구리",
    "개지럴",
    "개집",
    "개짜식",
    "개짝",
    "개쪼다",
    "개찌질이",
    "개창년",
    "개평쉰",
    "개허러",
    "개허벌년",
    "개허접",
    "개호러",
    "개호로",
    "개호로놈",
    "개후랄",
    "개후레",
    "개후로",
    "개ㅐ색",
    "갠세이",
    "갱방",
    "걔섀끼",
    "걔잡넘",
    "거러지",
    "거렁뱅이",
    "거지련",
    "거지쉐뀌",
    "거지쉑이",
    "거지쎄끼",
    "거지쒜리",
    "건만남",
    "걸레가튼넘",
    "걸레가튼뇸",
    "걸레같은놈",
    "겁탈",
    "게가튼",
    "게같은",
    "게너마",
    "게넘",
    "게노마",
    "게놈",
    "게놈아",
    "게뇸",
    "게눔",
    "게늠",
    "게늠아",
    "게띠발넘",
    "게부랄",
    "게부알",
    "게새리",
    "게새키",
    "게색",
    "게색기",
    "게색끼",
    "게샛키",
    "게세",
    "게세꺄",
    "게섹",
    "게섹놈아",
    "게셋키",
    "게쉐",
    "게쉐이",
    "게스끼",
    "게스키",
    "게시끼",
    "게시퀴",
    "게싯끼",
    "게쌕끼",
    "게자쉭",
    "게자슥",
    "게자시",
    "게잡넘",
    "게팔",
    "계약동거",
    "계약애인",
    "계약앤",
    "계집",
    "고공섹스",
    "고도리쌍년",
    "고딩",
    "고우섹스",
    "고추때",
    "고추떼",
    "고츄",
    "고투에로",
    "고푼녀",
    "고픈녀",
    "고픈여",
    "곧휴",
    "공알",
    "과부촌",
    "관계가질",
    "광년",
    "광뇨늬",
    "광뇨니",
    "교성",
    "교환",
    "교환부부",
    "구멍에쑤실까",
    "구멍질",
    "국제성인마트",
    "굴래머",
    "굴램",
    "굴레머",
    "굿섹스클럽",
    "궤놈",
    "궤부럴",
    "궤시끼",
    "궤시키",
    "궤쎅",
    "그넘",
    "그년",
    "그놈",
    "그룹섹",
    "그자식",
    "그지새키",
    "그지색",
    "그짓",
    "글래머",
    "글래머샵",
    "글레머",
    "긍친",
    "기엉아",
    "기집년",
    "기집애",
    "기집에",
    "기형아",
    "긴년",
    "까고있내",
    "까대",
    "까댄",
    "까데",
    "까지마",
    "까진년",
    "깔다구",
    "깔따구",
    "깔보년",
    "깨쉑",
    "깨쌔꺄",
    "좃빠라라",
    "깨쌔리",
    "꺼져상년",
    "꺼추",
    "께세",
    "꼬추",
    "꼭지",
    "꼰대",
    "꼴려",
    "꼴리",
    "꼴리는",
    "꼴리다",
    "꼴캅",
    "꽁까",
    "꽁깐년",
    "끈팬티",
    "나너먹을게",
    "나너먹을께",
    "나도생리중",
    "나랑할래",
    "나를싸게",
    "나를흥분",
    "나먹어라",
    "나먹어봐",
    "나먹어줘",
    "나쁜년",
    "나쁜논",
    "나쁜놈",
    "나쁜쉑",
    "나이뻐허벌년",
    "낙태",
    "낙태아",
    "난잡년",
    "난창녀",
    "날아가는년",
    "남근",
    "남녀섹시속옷",
    "남녀자위기구",
    "남성단련용품",
    "남창",
    "내미럴",
    "냥팔이",
    "너검마",
    "너그아비",
    "너그애비",
    "너그어미",
    "너그엄마",
    "너그에미",
    "너두죽어봐",
    "너뒤져볼래",
    "너아비",
    "너애비",
    "너엄마",
    "너에미",
    "넌진짜주거써",
    "넘드",
    "넘들",
    "넣게벌려",
    "넣고싶어",
    "넣어줄",
    "넣어줘",
    "네버섹스",
    "네아부지",
    "네에미",
    "넴병",
    "년넘",
    "년놈",
    "년드",
    "년들",
    "년아",
    "년의자식",
    "노노무라",
    "노란국물",
    "노랑국물",
    "노브라",
    "노출",
    "노출증",
    "노콘",
    "노틀담에꼬추",
    "노팬츠",
    "노팬티",
    "놈년",
    "놈아",
    "놈의자식",
    "놈팽",
    "농아",
    "누가진짜뵨태",
    "누구맘대로타",
    "누나몸",
    "누두",
    "누워라이년아",
    "누웠냐씨방새",
    "눈까라",
    "눈까리",
    "눈깔",
    "눈깔파고드러",
    "눈알",
    "눼기미",
    "뉘귀미",
    "뉘기미",
    "뉘김이",
    "뉘뮈",
    "뉘미",
    "뉘미랄",
    "뉘미럴",
    "뉘미롤",
    "뉘미쉬벌",
    "뉘밀얼",
    "뉘밀할",
    "뉘아비",
    "뉘애비",
    "뉘어미",
    "뉘엄마",
    "뉘에미",
    "뉘이미",
    "뉘잉기미",
    "뉘집자식",
    "뉘집자씩",
    "뉘집짜식",
    "뉭기리",
    "뉭기미",
    "느검마",
    "늬귀미",
    "늬긔미",
    "늬기미",
    "늬믜창",
    "늬미",
    "니M창",
    "니귀미",
    "니기리",
    "니기뮈",
    "좃털",
    "니김이",
    "니네애비다",
    "니년",
    "니마즐",
    "니머럴",
    "니뮈",
    "니뮈랄",
    "니뮈럴",
    "니뮈쒸발",
    "니믜",
    "니믜창",
    "니밀할",
    "니부랑",
    "니아부지",
    "니애미랄",
    "니어미배째",
    "니엄마",
    "니이미",
    "니임이",
    "니조랄머리",
    "니조지다",
    "닉이미",
    "닉임이",
    "닐기랄년",
    "님아즐",
    "님엄마",
    "님이랄",
    "님이럴",
    "님이롤",
    "닝기리",
    "닝기미",
    "닝기미운영자",
    "다리사이",
    "다마박",
    "다방년",
    "다보여준",
    "다보자성인영화관",
    "다음섹스",
    "다이섹스",
    "닥대가리",
    "닥대갈",
    "닭대가리",
    "닭대갈",
    "닭데갈",
    "닭뒈가리",
    "당첨",
    "대가뤼",
    "좆",
    "대가빡",
    "대갈",
    "대갈빠",
    "대갈빠리",
    "대갈빡",
    "대갈탱",
    "대갈탱이",
    "대갈통",
    "대갈퉁",
    "대굴빡",
    "대박성인토탈몰",
    "대포통장",
    "대포폰",
    "더러운한국",
    "덥치기",
    "덥침",
    "덩신",
    "덮치기",
    "덮침",
    "데져",
    "데져라",
    "데진다",
    "데질",
    "데질래",
    "도그플",
    "도란년",
    "도른",
    "도른것",
    "도른년",
    "도른놈",
    "도른뇸",
    "도박",
    "도오미",
    "도우미",
    "도움이",
    "도촬",
    "도쿄섹스NIPON",
    "돈섭",
    "돈필요한",
    "돌대가리",
    "돌은것",
    "돌은년",
    "돌은놈",
    "돌은뇸",
    "돌흔",
    "동거",
    "동거녀",
    "돼져",
    "돼진다",
    "되가리",
    "되져라",
    "되질",
    "되질래",
    "됻밥",
    "둇같은",
    "두두섹스",
    "둥신",
    "뒈져라",
    "뒈졌",
    "뒈지",
    "뒈진다",
    "뒈질",
    "뒈질래",
    "뒤길넘",
    "뒤길놈",
    "뒤럴",
    "뒤로너어줘",
    "뒤져",
    "뒤졌",
    "뒤죠",
    "뒤즬",
    "뒤지",
    "뒤진다",
    "뒤질",
    "뒤질래",
    "듕시나",
    "듕신",
    "드러운넘",
    "드러운놈",
    "드러운새리",
    "드러운섀끼",
    "드러운셰끼",
    "드러운쉐리",
    "드러운시끼",
    "드런년",
    "드런놈",
    "드응신",
    "등급보류성인영화관",
    "등띤",
    "등쉬",
    "등쉰",
    "등신아",
    "등씬",
    "듸랄",
    "듸뢀",
    "듸발",
    "듸져",
    "듸즬",
    "듸진다",
    "듸질",
    "딍싄",
    "딍신",
    "디랄",
    "디럴",
    "디뢀",
    "디발",
    "디발눔들아",
    "디방쉐",
    "디봘",
    "디저",
    "디져라",
    "디지겠",
    "디지털섹스조",
    "디진다",
    "디질래",
    "딜도",
    "딩쉰",
    "딩신",
    "딩신아",
    "따구리",
    "따굴",
    "따머거",
    "따먹",
    "따무라",
    "따묵기",
    "딱꾸리",
    "딱지떼자",
    "딱쳐",
    "딱쵸",
    "딱치셔",
    "딸녀",
    "딸다리",
    "딸달이",
    "딸치냐",
    "떠그럴",
    "떠라이",
    "떠라이세키",
    "떡촌",
    "떡칠녀",
    "떨아이",
    "또라이새리",
    "똘라이",
    "똘른놈",
    "똘마니새리",
    "똘뱅이",
    "똘봉년",
    "뛰발",
    "뛰봘",
    "뜁새",
    "뜨건밤",
    "뜨발",
    "뜨벌",
    "뜨블",
    "뜽신",
    "띄랄",
    "띄발",
    "띄밸",
    "띄뱅",
    "띄벨",
    "띄불",
    "띕때",
    "띕새",
    "띕알",
    "띠뎅",
    "띠랄",
    "띠바",
    "띠바랄",
    "띠박",
    "띠발넘",
    "띠발년",
    "띠발놈",
    "띠발섀끼",
    "띠발세끼",
    "띠발쉐끼",
    "띠발스끼",
    "띠발시끼",
    "띠발아",
    "띠발자식",
    "띠방",
    "띠방새",
    "띠방세",
    "띠방쉐",
    "띠밸",
    "띠버럴",
    "띠벌",
    "띠벙",
    "띠벙세",
    "띠벨",
    "띠병",
    "띠병할",
    "띠볼",
    "띠봉",
    "띠봉세",
    "띠봉알",
    "띠부랄놈",
    "띠부럴",
    "띠불넘",
    "띠불놈",
    "띠붕",
    "띠붕세",
    "띠뷀",
    "띠브랄",
    "띠브럴",
    "띠블",
    "띠이바",
    "띠이발",
    "띠이방",
    "띠이밸",
    "띠이벌",
    "띠이볼",
    "띠이불",
    "띠이붕",
    "띠이팔",
    "띠이펄",
    "띠이풀",
    "띠키",
    "띠파",
    "띠팔",
    "띠퍼",
    "띠펄",
    "띠풀",
    "띨방",
    "띨벙",
    "띨빡",
    "띨빵",
    "띱데",
    "띱때",
    "띱때끼",
    "띱때루",
    "띱때양아치",
    "띱뽕",
    "띱뿡",
    "띱세",
    "띱쉐",
    "띱쎄",
    "띱쒜",
    "띱할",
    "띱헐",
    "라노비아섹스샵",
    "라이브스트립",
    "랄떨",
    "래즈",
    "래즈비언",
    "러브박사성인용품",
    "러브베드",
    "러브섹시클럽",
    "러브하자성인용품",
    "러브호텔",
    "러시아걸",
    "럴떨",
    "레드섹스TV",
    "레즈",
    "레즈비언",
    "로리타",
    "룸사롱",
    "룸살롱",
    "룸쌀롱",
    "뤼미럴",
    "리넘",
    "리년",
    "리놈",
    "리미랄",
    "리미럴",
    "리미썅",
    "리얼게임싸이트",
    "리얼섹",
    "리얼에로",
    "릴넘",
    "릴년",
    "릴놈",
    "링기미",
    "마니아섹스",
    "마사지",
    "마스터쉬바",
    "마앙가",
    "마약",
    "마이룸",
    "막대핥아줘",
    "만나서하자",
    "만져볼래",
    "만져주께",
    "만져줄년",
    "만져줄분",
    "만져줘",
    "만지고",
    "만지고파",
    "만지는중",
    "만지면커진다",
    "말대가리",
    "말부랄",
    "말세끼",
    "말자식",
    "말좇",
    "맛간놈",
    "맛간뇸",
    "망할",
    "망할넘",
    "망할놈",
    "망할새퀴",
    "맞간년",
    "매매",
    "매친",
    "매친년",
    "매친놈",
    "매틘",
    "매틴",
    "머니필요한",
    "머니헌터",
    "머라빠너",
    "머라빠노",
    "머저리",
    "먹고보니내딸",
    "먹고보니누나",
    "먹고보니딸",
    "먹고보니똥개",
    "먹고보니엄마",
    "먹고보니응아",
    "먹고보니재수",
    "먹고보니처제",
    "먹고보니형수",
    "먹어줘",
    "먹은넘",
    "먹은년",
    "먹은놈",
    "멀티플레이",
    "멍청이",
    "멍청한넘",
    "멍청한년",
    "멍청한놈",
    "메롱시불럴럴",
    "메조키스트",
    "메췬년",
    "메췬놈",
    "메친",
    "메친넘",
    "메친년",
    "메친놈",
    "메틘",
    "멜돔",
    "모노섹스",
    "모뗄",
    "모텔",
    "목따",
    "몰래보기",
    "몰래카메라",
    "몰래캠코더",
    "몰카",
    "몸을보고",
    "몸이보고",
    "몸캠",
    "몸켐",
    "몸팔어",
    "뫙가",
    "물확뺄",
    "뭐칀",
    "뭐퀼래",
    "뭐클래",
    "뭬친",
    "뭬친년",
    "뭬친놈",
    "뮈췬",
    "뮈칀",
    "뮈칀세끼",
    "뮈칀세리",
    "뮈칀세이",
    "뮈칀섹끼",
    "뮈칀쉐이",
    "뮈친",
    "뮈친년",
    "뮈친놈",
    "뮈친세리",
    "뮈친세이",
    "뮈친섹끼",
    "뮈친섹이",
    "뮈친쉑이",
    "믜췬",
    "믜칀",
    "믜칑",
    "믜친",
    "믜칭",
    "믜칭넘",
    "믜튄",
    "믜틘",
    "믜틴",
    "미국포르노",
    "미뛴",
    "미띤",
    "미랄",
    "미럴",
    "미륀",
    "미륀넘",
    "미륀년",
    "미륀놈",
    "미린넘",
    "미린년",
    "미스누드",
    "미쎄스터",
    "미이친",
    "미진넘",
    "미진놈",
    "미찬놈",
    "미천나",
    "미첸년",
    "미췐",
    "미췐년",
    "미췬넘",
    "미췬년",
    "미췬놈",
    "미췬세끼",
    "미췬세리",
    "미췬세이",
    "미췬쉐리",
    "미췽",
    "미츤",
    "미칀년",
    "미칀년아",
    "미칀놈",
    "미칑",
    "미치넘",
    "미치년",
    "미튄넘",
    "미튄년",
    "미틘",
    "미틘년",
    "미틴넘",
    "미틴년",
    "미틴놈",
    "민셩야설",
    "민셩야셜",
    "민증위조",
    "및친",
    "밑구멍",
    "밑꾸녕",
    "밑꾸뇽",
    "밑창",
    "밑친",
    "밑힌년",
    "바보",
    "바보영자",
    "바보운영자",
    "바이블블랙",
    "박고싶고",
    "박다",
    "박아",
    "박큐",
    "밖에다쌀께",
    "발넘",
    "발년",
    "발정",
    "배갈라",
    "배때지",
    "배위에싸죠",
    "배째라게세끼",
    "밸년",
    "밸놈",
    "뱅쉰",
    "뱅싄",
    "뱅시",
    "뱅시인",
    "뱅신",
    "뱅신시키",
    "뱅틴",
    "뱡신",
    "버러지",
    "버얼려서너어",
    "버즤나",
    "버지벌렁벌렁",
    "벅쿠",
    "벅큐",
    "번개",
    "번개남",
    "번개섹스",
    "벌기",
    "벌려",
    "벌려봐",
    "벌릴여자",
    "벌바",
    "벗겨보니그날",
    "벗겨보니남자",
    "벗겨보니내딸",
    "벗겨보니숙모",
    "벗겨보니처재",
    "벗겨보니처제",
    "벗겨보니형수",
    "벗고",
    "벗기전인그녀",
    "벙개",
    "벙개남",
    "벙섹",
    "벙신",
    "벨년",
    "벨놈",
    "벵쉰",
    "벵싄",
    "벵시",
    "벵틴",
    "벼언",
    "벼언태",
    "벼언테",
    "벼엉시나",
    "벼엉시이",
    "벼엉신",
    "벼잉신",
    "변GIR",
    "변GIRL",
    "변O",
    "변T",
    "변YOU녀",
    "변견",
    "변섹",
    "볍신",
    "병딘",
    "병따",
    "병딲",
    "병띤",
    "병삼",
    "병순",
    "병쉔",
    "병쉬",
    "병쉰",
    "병싀",
    "병싄",
    "병싄아",
    "병시",
    "병시간은놈",
    "병시같은년",
    "병시나",
    "병시년아",
    "병시놈아",
    "병시이",
    "병시인",
    "병싡",
    "병싢",
    "병싣",
    "병싱",
    "병씬",
    "병씮",
    "병아",
    "병어신",
    "병엉신",
    "병원놀이",
    "병자년",
    "병진",
    "병탁",
    "보x",
    "보슬",
    "보우지",
    "보텡",
    "복사",
    "봇털",
    "봊지",
    "뵝신",
    "뵤오지",
    "뵹딱",
    "뵹쉰",
    "뵹쉰아",
    "뵹싄",
    "뵹신",
    "부라",
    "부모님주번",
    "부부교환",
    "부부교환섹스",
    "부부섹스",
    "부처",
    "부처님",
    "부킹맨",
    "불넘",
    "불륜",
    "붕싄",
    "붕시나",
    "붱싄",
    "붱신",
    "뷍슨",
    "뷍싄",
    "뷍신",
    "뷩쉬",
    "뷩쉰",
    "뷩싄",
    "뷩시",
    "뷩신",
    "뷩신뭘보니",
    "뷰웅시나",
    "뷰웅신",
    "뷰융신",
    "븅따",
    "븅딱",
    "븅딱아",
    "븅띈",
    "븅띤",
    "븅삼",
    "븅싄",
    "븅시",
    "븅시나",
    "븅식섹끼",
    "븅신색끼",
    "븅신색히",
    "븅신섹히",
    "븅아",
    "븅틴",
    "브라알",
    "브라자",
    "브라쟈",
    "브랄",
    "브레지어",
    "브로드밴드",
    "블랙잭",
    "븡딱",
    "븡쉰",
    "븡신",
    "븽딱",
    "븽쉬",
    "븽슨",
    "븽싄",
    "븽시",
    "븽시새키",
    "븽신",
    "비됴방",
    "비러머",
    "비러머글",
    "비러먹",
    "비러먹을",
    "비용신",
    "비웅신",
    "비융신",
    "비잉시이",
    "비잉신",
    "비즈니스클럽",
    "빌어먹",
    "빌어먹을",
    "빌어먹을년",
    "빙구",
    "빙닥",
    "빙딱",
    "빙뛴",
    "빙순",
    "빙쉬",
    "빙쉰",
    "빙싀",
    "빙싄",
    "빙시",
    "빙시나",
    "빙시인",
    "빙신쉐리",
    "빙아",
    "빙이신",
    "빙자",
    "빙탁",
    "빙틴",
    "빠가같은",
    "빠가야료",
    "빠가에로",
    "빠그리",
    "빠돌이",
    "빠르너",
    "빠수니",
    "빠순",
    "빠순이",
    "빠질년",
    "빠큐",
    "빡순",
    "빡큐",
    "빨간마후라",
    "빨게",
    "빨게해져",
    "빨게해죠",
    "빨게해줘",
    "빨게해쥬",
    "빨다",
    "빨어봐",
    "빨은걸레",
    "빽좌지",
    "뺑신",
    "뺑쒼",
    "뺑씬",
    "뺘아뻐그리",
    "뺘큐",
    "뻐르나",
    "뻐르너",
    "뻐르노",
    "뻐어큐",
    "뻑뀨",
    "뻑유",
    "뻘노",
    "뻨규",
    "뻨큐",
    "뼝쉰",
    "뼝신",
    "뼝씬",
    "뽀로노",
    "뽀르나",
    "뽀르너",
    "뽀르노걸",
    "뽀르노보이",
    "뽀큐",
    "뽁큐",
    "뽈노",
    "뽈로노",
    "뽕브라",
    "뿅신",
    "뿅씬",
    "뿡신",
    "쀼웅신",
    "쁑신",
    "쁜넘",
    "쁜년",
    "쁜놈",
    "삐구",
    "삐꾸",
    "삐리넷",
    "삑구",
    "삑꾸",
    "삑다구",
    "삑다귀",
    "삥쉰",
    "삥신",
    "삥쒼",
    "삥씬",
    "사갈탱이",
    "사구팔구",
    "사디스트",
    "사앙녀",
    "사앙년",
    "사은금팍팍",
    "사은품증정",
    "사이코",
    "사정",
    "사정하",
    "사정하다",
    "사정할",
    "사정했",
    "사타구니",
    "삭숭이",
    "살까치",
    "살송곳",
    "살인",
    "살인마",
    "살인범",
    "살인자",
    "살인현장",
    "살해",
    "살해범",
    "살해현장",
    "삽입",
    "삽탱",
    "상넘",
    "상노무",
    "상놈",
    "상놈쉑",
    "상늠",
    "상늠쉑",
    "새까",
    "새꺄",
    "새뀌",
    "새끠",
    "새끼",
    "새낀",
    "새대가리",
    "새대갈",
    "새대갈빡",
    "새대갈탱",
    "새대구빡",
    "새데가리",
    "새데갈",
    "새데구빡",
    "새뤼",
    "새에끼",
    "새캬",
    "새퀴",
    "새킈",
    "새키",
    "색골닷콤",
    "색광",
    "색귀",
    "색기",
    "색꺄",
    "색녀야",
    "색년",
    "색마같은것",
    "색쇼",
    "색쉬",
    "색시",
    "색쑤",
    "색여같네",
    "색캬",
    "색할",
    "색햐",
    "색휘",
    "색히",
    "샊꺄",
    "샊끼",
    "샙새",
    "생까",
    "생깜",
    "생리중",
    "생양아치",
    "생퀴",
    "생키",
    "샤럽",
    "샤발",
    "샹놈의새리",
    "샹놈의쌔리",
    "샹늠의새리",
    "샹늠의쌔리",
    "샹악연",
    "섀기",
    "섀꺄",
    "섀끼",
    "섀캬",
    "섀키",
    "서글넘",
    "서방질",
    "서양뽀르노",
    "서양이쁜이",
    "성X",
    "성게시판",
    "성겨육",
    "성고민상담",
    "성과섹스",
    "성교육",
    "성교육중",
    "성인CD",
    "성인야서",
    "성인엽기DAMOIM",
    "성인용CD",
    "성인전용",
    "세뀌",
    "세끠",
    "세븐섹시",
    "세액스",
    "세에끼",
    "세에쓰",
    "세에엑스",
    "세엑",
    "세엑수우",
    "세엑스",
    "세캬",
    "세퀴",
    "세키",
    "섹e스",
    "섹꺄",
    "섹도우즈",
    "섹들",
    "섹마야",
    "섹여같은것",
    "섹키",
    "섹하쟈",
    "섹한번",
    "센스디스",
    "셁기",
    "셁끼",
    "셐기",
    "소세끼",
    "소자식",
    "솹쉐이",
    "쇄뀌",
    "쇄끼",
    "쇄대가리",
    "쇄대갈",
    "쇄대갈빡",
    "쇄대갈탱",
    "쇄대구빡",
    "쇄데가리",
    "쇄데갈",
    "쇄데구빡",
    "쇄덱아리",
    "쇄뒈갈",
    "쇄이",
    "쇄키",
    "쇅꺄",
    "쇅끼",
    "쇅수",
    "쇅스",
    "쇅쑤",
    "쇅쓰",
    "쇅키",
    "쇅햐",
    "쇍끼",
    "쇗키",
    "쇠뀌",
    "쇠끼",
    "쇠대가리",
    "쇠대갈",
    "쇠대구빡",
    "쇠데가리",
    "쇠데갈",
    "쇠데구빡",
    "수벌운영자",
    "숙식제공",
    "숩삭키",
    "쉐꺄",
    "쉐뀌",
    "쉐끼들",
    "쉐리",
    "쉐엑",
    "쉐이",
    "쉐이빙",
    "쉐퀴",
    "쉐키",
    "쉐팔",
    "쉐히",
    "쉑꺄",
    "쉑끼",
    "쉑들",
    "쉑수",
    "쉑스",
    "쉑쑤",
    "쉑쓰",
    "쉑이들",
    "쉑캬",
    "쉑키",
    "쉑햐",
    "쉑히",
    "쉡발",
    "쉡세",
    "쉣끼",
    "쉣더뻑",
    "쉣키",
    "쉨기",
    "쉨끼",
    "쉨캬",
    "쉨키",
    "쉬꺄",
    "쉬끼",
    "쉬다바리",
    "쉬댕",
    "쉬뎅",
    "쉬바",
    "쉬발",
    "쉬발년",
    "쉬방",
    "쉬방새",
    "쉬방쉐이",
    "쉬밸",
    "쉬뱅",
    "쉬뱅들",
    "쉬벌",
    "쉬벌년",
    "쉬벧",
    "쉬벨",
    "쉬볼",
    "쉬봘",
    "쉬부",
    "쉬부랄",
    "쉬부랄조또",
    "쉬불",
    "쉬불탱",
    "쉬붕",
    "쉬브랄",
    "쉬브럴",
    "쉬블",
    "쉬빌",
    "쉬빠",
    "쉬빡",
    "쉬빨",
    "쉬빵세이",
    "쉬뺄",
    "쉬뻘",
    "쉬이바",
    "쉬이발",
    "쉬이방",
    "쉬이밸",
    "쉬이벌",
    "쉬이부",
    "쉬이불",
    "쉬이붕",
    "쉬이빡",
    "쉬이빨",
    "쉬이뺄",
    "쉬이뻘",
    "쉬이팔",
    "쉬이펄",
    "쉬이풀",
    "쉬키",
    "쉬파",
    "쉬파새",
    "쉬파색",
    "쉬파쌔",
    "쉬파쌕",
    "쉬팍",
    "쉬팕",
    "쉬팛",
    "쉬팡",
    "쉬퍼얼",
    "쉬펄",
    "쉬펄넘",
    "쉬펄년",
    "쉬펄놈",
    "쉬펄늠",
    "쉬펄섀끼",
    "쉬펄셰끼",
    "쉬펄쉐끼",
    "쉬펄시끼",
    "쉬펄쌔끼",
    "쉬펑",
    "쉬퐁",
    "쉬풀",
    "쉭빨",
    "쉭뻘",
    "쉭셰리",
    "쉭팔",
    "쉻알",
    "쉽년",
    "쉽땍기",
    "쉽땡구리",
    "쉽발",
    "쉽빨",
    "쉽뻘",
    "쉽새",
    "쉽생구리",
    "쉽샤퀴",
    "쉽세",
    "쉽셋",
    "쉽쉐",
    "쉽쉑",
    "쉽쌔",
    "쉽썌",
    "쉽쎄",
    "쉽쎅",
    "쉽알",
    "쉽앨",
    "쉽쟁이",
    "쉽질",
    "쉽탱",
    "쉽탱구리",
    "쉽팔",
    "쉽펄",
    "쉽할이",
    "쉿새",
    "쉿세",
    "슈발",
    "슙발",
    "스끼",
    "스너프",
    "스댕",
    "스뎅",
    "스바랄",
    "스발",
    "스벌",
    "스벌놈",
    "스벌자식",
    "스벨",
    "스불",
    "스빌",
    "스빨",
    "스빵",
    "스뻘",
    "스뻥",
    "스팔",
    "스팔개",
    "스팔넘",
    "스팔년",
    "스팔놈",
    "스팔새",
    "스팔스",
    "스팔쌔",
    "스팔아",
    "스팔지랄",
    "스팔지럴",
    "스팔찌랄",
    "스팔찌럴",
    "스팡",
    "스팽",
    "스펄",
    "스펑",
    "습새",
    "습세",
    "습탱이",
    "습팔",
    "싀발",
    "싀발놈아",
    "싀발로모",
    "싀방",
    "싀밸",
    "싀벌",
    "싀벨",
    "싀보랄",
    "싀봉",
    "싀빨",
    "싀빨년",
    "싀뻘년",
    "싀팍",
    "싀팔",
    "싁팍",
    "싑년",
    "싑발",
    "싑샤퀴",
    "싑세",
    "싑알",
    "싑앨",
    "싑얄",
    "싑질",
    "싓팔",
    "시글년",
    "시뀌",
    "시끼",
    "시다바",
    "시다바리",
    "시달년",
    "시댕",
    "시댕아",
    "시뎅",
    "시뎅아",
    "시땡이",
    "시뗑",
    "시뗑이",
    "시바",
    "시바라",
    "시바라마",
    "시바새기",
    "시박",
    "시밝",
    "시밟",
    "시밠",
    "시밣",
    "시방넘",
    "시방녀",
    "시방년",
    "시방놈",
    "시방새누워라",
    "시방세",
    "시방쉐",
    "시방시불",
    "시밮",
    "시밯",
    "시뱅",
    "시뱅넘",
    "시뱅년",
    "시뱅놈",
    "시뱔",
    "시뱜",
    "시벌",
    "시벌넘",
    "시벌존나",
    "시벨",
    "시벨넘",
    "시벨새키",
    "시벵",
    "시볼너아",
    "시봉세",
    "시봘",
    "시봟",
    "시부랄",
    "시부랄넘",
    "시부랄녀언",
    "시부랄년",
    "시부랄놈",
    "시부랄요정",
    "시부랄죽인다",
    "시부랑",
    "시부럴",
    "시부리",
    "시불",
    "시불놈",
    "시불랑",
    "시불박사",
    "시불소녀",
    "시불연화",
    "시불이어여",
    "시불탱",
    "시불팅이놈아",
    "시불헐",
    "시붕",
    "시뷀",
    "시브랄",
    "시블",
    "시블넘",
    "시블년",
    "시빌",
    "시빠련",
    "시빠바조쿠나",
    "시빨",
    "시빨년",
    "시빨놈",
    "시빵",
    "시뻥",
    "시아눔",
    "시앙넘",
    "시앙년",
    "시앙놈",
    "시앙눔",
    "시양넘",
    "시양년",
    "시양놈",
    "시양눔",
    "시이바",
    "시이발",
    "시이방",
    "시이밸",
    "시이벌",
    "시이불",
    "시이붕",
    "시이빡",
    "시이팍",
    "시이팔",
    "시이펄",
    "시이풀",
    "시입팔",
    "시키야",
    "시파늠",
    "시파늠아",
    "시파새",
    "시파쌔",
    "시파야",
    "시팍",
    "시팍년",
    "시팍새꺄",
    "시팍시끼",
    "시팏",
    "시팔",
    "시팕",
    "시팗",
    "시팡",
    "시팤",
    "시펄",
    "시펄년",
    "시펄년아",
    "시펄놈",
    "시펄놈아",
    "시펑",
    "시퐁",
    "시퐈",
    "시퐉",
    "시퐐",
    "시퐐년",
    "시푈",
    "시풀",
    "시풀놈",
    "식키",
    "식팍",
    "식팔",
    "식펄년이",
    "신발너마",
    "신음",
    "신음소리",
    "실리콘하우스성인용품",
    "실바시발놈",
    "실밸",
    "싥팕",
    "싫팛늠",
    "심년",
    "심년아",
    "심한포르노",
    "십가튼",
    "십넘",
    "십녀나",
    "십년",
    "십놈",
    "십데꺄",
    "십딱",
    "십때꺄",
    "십때끼",
    "십때키",
    "십땡",
    "십땡구리",
    "십땡그리",
    "십땡글이",
    "십땡이",
    "십떼끼",
    "십떼키",
    "십물",
    "십발쌔꺄",
    "십밸",
    "십사꾸",
    "십새꺄",
    "십새캬",
    "십새키",
    "십색",
    "십색꺄",
    "십색끼",
    "십색히",
    "십샹",
    "십섀",
    "십세",
    "십세기",
    "십세끼",
    "쥐랄",
    "십세키",
    "십쇄리",
    "십쇡기",
    "십쇼키",
    "십숑키",
    "십쉐",
    "십쉐리",
    "십쉐이",
    "십쉑",
    "십쉑히",
    "십시끼",
    "십시퀴",
    "십쌔",
    "십쌔꺄",
    "십쌔끼",
    "십쌔키",
    "십쎄끼",
    "십쎼",
    "십씨키",
    "십앋",
    "십알",
    "십알넘",
    "십알놈아",
    "십왈",
    "십우랄년아",
    "십을년",
    "십자식",
    "십장이",
    "십쟁이",
    "즈룽게임즈",
    "십지럴",
    "십창년",
    "십탱꾸리",
    "십탱아",
    "십탱이",
    "십텡구리",
    "십퉁",
    "십팔",
    "십펄",
    "십하",
    "십할",
    "십할넘",
    "십할놈",
    "십헐",
    "싯끼",
    "싯빨",
    "싯파",
    "싯팍",
    "싯팔",
    "싯팔쉐끼들아",
    "싯팟",
    "싯퐐",
    "싱글플레이",
    "싱발",
    "싲팔",
    "싴팔",
    "싵팔",
    "싶알",
    "싶팔",
    "싶펄",
    "싸가리",
    "싸가즤",
    "지랼",
    "싸가지없는년",
    "싸갈",
    "싸게해줄게",
    "싸게해줄께",
    "싸고시포",
    "싸근늼",
    "싸기",
    "싸까씨",
    "싸까지",
    "싸까찌",
    "싸냐",
    "싸달",
    "싸라",
    "싸바라마",
    "싸발",
    "싸발노마",
    "싸뱔",
    "싸앙넘",
    "싸앙녀",
    "싸앙년",
    "싸앙뇽아",
    "싸앙눔",
    "싸앙뉸",
    "싸앙늠",
    "싸이커",
    "싸이코",
    "싸죠",
    "싸줄게",
    "싸줘",
    "싹년",
    "싹동",
    "싹바",
    "싹쓰리닷컴",
    "싹아쥐",
    "싹아지",
    "싹퉁",
    "싹퉁머리",
    "싼다",
    "쌈치기",
    "쌉년",
    "쌉쳐",
    "쌉탱",
    "쌍너엄",
    "쌍녀언",
    "쌍노",
    "쌍노무",
    "쌍노무운영자",
    "쌍놈아",
    "쌍뇨나",
    "쌍눔",
    "쌍늠",
    "쌍부랄",
    "쌍악연",
    "쌍연",
    "쌍욕",
    "쌍판",
    "쌍팔년",
    "쌔기",
    "쌔까",
    "쌔꺄",
    "쌔뀌",
    "쌔낑",
    "쌔리",
    "쌔밸년",
    "쌔캬",
    "쌔퀴",
    "쌔키",
    "쌕갸",
    "쌕꺄",
    "쌕끼",
    "쌕년",
    "쌕들",
    "쌕쌕이티비",
    "쌕캬",
    "쌕히",
    "쌩MOLCA",
    "쌩몰카",
    "쌰갈탱",
    "쌰꺄",
    "쌰럽",
    "쌰발",
    "쌰발넘",
    "쌰발년",
    "쌰발놈",
    "쌰발라마",
    "쌰앙",
    "쌰앙넘",
    "쌰앙녀",
    "쌰앙년",
    "쌰앙놈",
    "쌰앙눔",
    "쌰앙뉸",
    "쌰앙늠",
    "썁색",
    "썁슥",
    "썁식",
    "썁쌔리",
    "썅넌",
    "썅넘",
    "썅녀",
    "썅놈",
    "썅눔",
    "썅아녀",
    "썅아여",
    "썅악",
    "썅악년",
    "썅악여",
    "썅악연",
    "썅앙년",
    "썅여",
    "썅연",
    "썌꺄",
    "썌끼",
    "썌키",
    "썎끼",
    "써글",
    "써버럴",
    "써벌",
    "썩썩을놈을놈",
    "쎄기",
    "쎄꺄",
    "쎄끼",
    "쎄럽",
    "쎄리",
    "쎄벼",
    "쎄엑",
    "쎄엑스",
    "쎄퀴",
    "쎄키",
    "쎅기",
    "쎅녀",
    "쎅년",
    "쎅들",
    "쎅마",
    "쎅수",
    "쎅스코리아",
    "쎅시넷",
    "쎅쑤",
    "쎅쓰코리아",
    "쎅콜닷컴",
    "쎅클럽",
    "쎅히",
    "쎆끼",
    "쎼끼",
    "쎽스",
    "쐉넘",
    "쐉년",
    "쐐뀌",
    "쐐끼",
    "쐐끼들",
    "쐐대가리",
    "쐐대갈",
    "쐐대갈이",
    "쐐대구빡",
    "쐐데가리",
    "쐐데갈",
    "쐑갸",
    "쐑꺄",
    "쐑들",
    "쐑수",
    "쐑스",
    "쐑쑤",
    "쐑쓰",
    "쐑캬",
    "쐬끼",
    "쑤바",
    "쑤발",
    "쑤밸",
    "쑤벌",
    "쑤벨",
    "쑤셔",
    "쑤셔불라",
    "쑤팔",
    "쑤펄",
    "쑵년",
    "쑵새",
    "쒜뀌",
    "쒜끠",
    "쒜끼",
    "쒜뒈가리",
    "쒜럽",
    "쒜리",
    "쒜이",
    "쒜키",
    "쒝기",
    "쒝끼",
    "쒝들",
    "쒝수",
    "쒝스",
    "쒝쑤",
    "쒝쓰",
    "쒝캬",
    "쒭가튼",
    "쒭사꾸",
    "쒭새",
    "쒸뀌",
    "쒸댕",
    "쒸댕아",
    "쒸뎅",
    "쒸바라",
    "쒸박",
    "쒸박색기",
    "쒸박색끼",
    "쒸발",
    "쒸발쉑끼",
    "쒸방",
    "쒸방새",
    "쒸방쉐이",
    "쒸밸",
    "쒸뱅",
    "쒸뱔",
    "쒸뱡",
    "쒸벌",
    "쒸벙",
    "쒸벨",
    "쒸봉",
    "쒸부",
    "쒸부랄",
    "쒸부럴",
    "쒸불",
    "쒸붕",
    "쒸뷰랄",
    "쒸뷰럴",
    "쒸블",
    "쒸빠",
    "쒸빡",
    "쒸빨",
    "쒸빨넘",
    "쒸빵",
    "쒸빵세이",
    "쒸뻘",
    "쒸쌔",
    "쒸이",
    "쒸입새",
    "쒸키",
    "쒸파",
    "쒸팍",
    "쒸팔",
    "쒸팔넘",
    "쒸팔년",
    "쒸팔놈",
    "쒸팡",
    "쒸팡색기",
    "쒸팡색끼",
    "쒸펄",
    "쒸펑",
    "쒸펠",
    "쒸폴",
    "쒸풀",
    "쒸풍",
    "쓉년",
    "쓉발",
    "쓉새",
    "쓉새기",
    "쓉새기야",
    "쓉쌔",
    "쓉쌔끼",
    "쓉쌔끼야",
    "쓉쎄",
    "쓉쎄끼",
    "쓉쒜",
    "쓉알",
    "쓉질",
    "쓉창",
    "쓉탱",
    "쓉팔넘",
    "쓉팔년",
    "쓉팔놈",
    "쓋빨",
    "쓋뻘",
    "쓋파라",
    "쓋팍",
    "쓰글",
    "쓰글넘",
    "쓰글년",
    "쓰글놈",
    "쓰글늠",
    "쓰댕",
    "쓰델",
    "쓰뎅",
    "쓰뎅알",
    "쓰레기",
    "쓰렉년",
    "쓰바",
    "쓰바세끼",
    "쓰바쌔끼",
    "쓰바알년",
    "쓰박",
    "쓰발남",
    "쓰발넘",
    "쓰발년",
    "쓰발놈",
    "쓰발세꺄",
    "쓰발세끼",
    "쓰발쌔꺄",
    "쓰밝",
    "쓰방",
    "쓰방새",
    "쓰방쉐",
    "쓰밸",
    "쓰뱅",
    "쓰버",
    "쓰버얼",
    "쓰벙",
    "쓰벨",
    "쓰볼",
    "쓰봉",
    "쓰봉쉐",
    "쓰봘",
    "쓰부",
    "쓰부랄",
    "쓰부럴",
    "쓰불",
    "쓰붕",
    "쓰붕쉐",
    "쓰붤",
    "쓰뷀",
    "쓰브럴",
    "쓰블",
    "쓰빠",
    "쓰빡",
    "쓰빨",
    "쓰뺄",
    "쓰뻘",
    "쓰으발",
    "쓰으방",
    "쓰으벌",
    "쓰으블",
    "쓰으팔",
    "쓰으펄",
    "쓰이바",
    "쓰이발",
    "쓰이방",
    "쓰이밸",
    "쓰이벌",
    "쓰이부",
    "쓰이불",
    "쓰이붕",
    "쓰이빡",
    "쓰이팔",
    "쓰이펄",
    "쓰이풀",
    "쓰팍",
    "쓰팔",
    "쓰팔넘",
    "쓰팔년",
    "쓰팔놈",
    "쓰팡",
    "쓰펄",
    "쓰펑",
    "쓰풀",
    "쓱을",
    "씁빠",
    "씁새",
    "씁세",
    "씁쉐",
    "씁쌔",
    "씁쎄",
    "씁쒜",
    "씁알",
    "씁창",
    "씁탱",
    "씁파",
    "씁팔",
    "씁퍼",
    "씁펄",
    "씁폴",
    "씁할",
    "씁헐",
    "씌댈",
    "씌댕",
    "씌델",
    "씌뎅",
    "씌바",
    "씌발넘",
    "씌발쇄",
    "씌밝",
    "씌방",
    "씌밸",
    "씌밸넘",
    "씌뱅",
    "씌뱌",
    "씌벌",
    "씌벨",
    "씌벵",
    "씌봉",
    "씌봘",
    "씌뵹",
    "씌부려",
    "씌블",
    "씌빨",
    "씌알",
    "씌파",
    "씌팍",
    "씌팏",
    "씌팕",
    "씌퐁",
    "씜쒜이",
    "씝년",
    "씝새",
    "씝세",
    "씝쌔",
    "씝쎄",
    "씝알",
    "씝알놈",
    "씝알늠아",
    "씝질",
    "씝창",
    "씝탱",
    "씝탱구리",
    "씝팔",
    "씝할",
    "씦알",
    "씨구리",
    "씨꽈랄",
    "씨끼",
    "씨다바",
    "씨다바리",
    "씨댕아",
    "씨델",
    "씨땡이",
    "씨뗑",
    "씨똉이",
    "씨레기",
    "씨뤠기",
    "씨바",
    "씨박",
    "씨박새",
    "씨박새리",
    "씨박쉐리",
    "씨밝럼",
    "씨밟",
    "씨밠",
    "씨밣",
    "씨밤",
    "씨밤년",
    "씨밥바리니지",
    "씨밦",
    "씨방",
    "씨방쉐",
    "씨방쉐야",
    "씨밮",
    "씨밯",
    "씨배랄",
    "창년",
    "씨밸넘",
    "씨밸년",
    "씨밸놈",
    "씨밸래미",
    "씨뱅",
    "씨뱅딱",
    "씨버",
    "씨버럴",
    "씨벌넘",
    "씨벙",
    "씨베랄",
    "씨베렐",
    "씨벧",
    "씨벨",
    "씨벵",
    "씨벵이",
    "씨볼년",
    "씨볼년아",
    "씨볼놈",
    "씨볼놈아",
    "씨봉년",
    "씨봉쉐",
    "씨봘",
    "씨봙",
    "씨봟",
    "씨봣넘",
    "씨봪",
    "씨뵐",
    "씨부랠",
    "씨부렁",
    "씨부려",
    "씨부롤",
    "씨부리",
    "씨부얼",
    "씨불넘",
    "씨불할",
    "씨불헐",
    "씨붕",
    "씨붤",
    "씨뷀",
    "씨뷩",
    "씨븅",
    "씨브",
    "씨브랄",
    "씨브알늠",
    "씨블넘",
    "씨빠",
    "씨빠게씨야",
    "씨빠빠",
    "씨빡",
    "씨빡셰끼",
    "씨빨넘",
    "씨빯",
    "씨빳다",
    "씨빵",
    "씨뻘",
    "씨뻥",
    "씨뽀랄",
    "씨뽤",
    "씨뽥",
    "씨뿔",
    "씨앙",
    "씨이댕",
    "씨이바",
    "씨이발",
    "씨이발아",
    "씨이방",
    "씨이밸",
    "씨이뱅",
    "씨이벌",
    "씨이부",
    "씨이불",
    "씨이붕",
    "씨이빡",
    "씨이빨",
    "씨이이팔",
    "씨이팔",
    "씨이펄",
    "씨이풀",
    "씨입쉐",
    "씨입팔",
    "씨입할",
    "씨잘",
    "씨제이",
    "씨창",
    "씨키",
    "씨탱",
    "씨탱구리",
    "씨텡",
    "씨파",
    "씨파늠",
    "씨파늠아",
    "씨파알",
    "씨파야",
    "씨팍",
    "씨팍년",
    "씨팍놈",
    "씨팍늠",
    "씨팍새꺄",
    "씨팍아",
    "씨팏",
    "씨팔세끼",
    "씨팕",
    "씨팗",
    "씨팞",
    "씨팡",
    "씨퍌",
    "씨펄년",
    "씨펄년아",
    "씨펄놈",
    "씨펄놈아",
    "씨펄운영자",
    "씨펑",
    "촌씨브라리",
    "씨퐈",
    "씨풀",
    "씨풍",
    "씨플",
    "씨필",
    "씰알",
    "씳박",
    "씳발",
    "씳알",
    "씻탱구리",
    "앂빨",
    "아가릴",
    "아갈",
    "아갈빡",
    "아갈이",
    "아갈창",
    "아갈콩",
    "아갈통",
    "아갈팍",
    "아괄",
    "아구지",
    "아구창",
    "아구통",
    "아굴",
    "아굴창",
    "아랫도리",
    "아버지주번",
    "아빠주번",
    "아이러브에로스쿨",
    "아작내",
    "아쭈구리",
    "아쿠아볼",
    "아퍼살살해",
    "안에사정",
    "알바구함",
    "알바녀",
    "알바맨",
    "알바쪽지",
    "암캐",
    "암컷",
    "앞마당",
    "애로",
    "애로물",
    "애좌짓",
    "야게임",
    "야게임즈닷넷",
    "야겜",
    "야근병동",
    "야께임",
    "야껨",
    "야동게시판",
    "야똥",
    "야설공작소",
    "야설신화",
    "야설의문",
    "야쉬쉬",
    "야시MOLCA",
    "야시MTV",
    "야시꾸리",
    "야시랭크",
    "야시시",
    "야시시한",
    "야오위",
    "야오이",
    "야요이",
    "야자료",
    "야항",
    "양아",
    "촌씨브랑이",
    "얨병",
    "엄마주번",
    "엄마창",
    "에로",
    "에미창",
    "엠병",
    "여엄병",
    "연쇄살인",
    "연인사이성인샵",
    "열받아길막아",
    "염별할년",
    "촌씨브랭이",
    "염병할년",
    "염병할욘",
    "엽겨워",
    "엿같",
    "엿같다",
    "엿같은놈",
    "엿까",
    "엿머거",
    "엿먹",
    "엿먹고뒤져라",
    "엿먹어",
    "엿빨어운영자",
    "엿처",
    "옘병",
    "오까마",
    "오라질",
    "오르가줌",
    "오마담",
    "오빠아파",
    "오빠아퍼",
    "오빠흘러내려",
    "올가슴",
    "완전성인용",
    "왕가스",
    "왕부랄",
    "요씨댕",
    "욘나",
    "욘네",
    "욘니",
    "욘병",
    "욘뵹",
    "욘븅",
    "욤뵹",
    "욧나",
    "욧머거",
    "욧먹어",
    "우녕자",
    "우라질",
    "우라질놈",
    "우랄질",
    "운영자미친놈",
    "운영팀미친놈들",
    "원조교",
    "원조녀",
    "원조하자",
    "원틀릭페이",
    "원하는녀",
    "월경",
    "유방조물락",
    "유욱갑",
    "유흥",
    "유흥업소",
    "큰보지",
    "육갑떠",
    "육갑떨",
    "육갚",
    "육깝",
    "육깦",
    "육봉대가리",
    "육시랄",
    "육시럴",
    "육실할",
    "윤븅",
    "은년",
    "을년",
    "음담패설",
    "이넘",
    "이녀나",
    "이녀석",
    "이년시불년",
    "이놈",
    "이런뭔부랄",
    "이런뮌부랄",
    "이런시부랄",
    "이론쒸펄",
    "이반",
    "이반성인용품몰",
    "이새까",
    "이색휘",
    "이세꺄",
    "이세끼",
    "이쇅",
    "이쇅꺄",
    "이쉐꺄",
    "이쉐끼",
    "이쉑",
    "이쉑까",
    "이쉑꺄",
    "이시끼",
    "이시불것들아",
    "이시키",
    "이자식",
    "인터넷",
    "인터넷성인방송",
    "일본동영상",
    "일본망가",
    "일본미소녀",
    "일본뽀르노",
    "일본성인만화",
    "일본성인방송",
    "임마",
    "임빙할",
    "입주둥이",
    "자x",
    "자기핥아",
    "자아위",
    "자아지털",
    "자쥣",
    "자지가",
    "잠쥐",
    "잠쥐털",
    "잠지볶아버려",
    "장애",
    "잦이",
    "재섭는",
    "재섭다",
    "재섭서",
    "재섮",
    "재수없는",
    "재수없는년",
    "재수없는놈",
    "재수없다",
    "재수없어",
    "재습다",
    "재썹",
    "쟈샤",
    "쟘쥐",
    "쟘지",
    "저까",
    "저까는",
    "저까라마이신",
    "저까라마이씽",
    "저까운영자",
    "저까튼",
    "저까튼년",
    "저꽈튼",
    "저꽛튼",
    "저넘",
    "저놈",
    "저뇸",
    "저능아",
    "저떠씨벵",
    "저런년",
    "저빠",
    "저빠지게",
    "저빱",
    "저샤키",
    "저엇",
    "저엊",
    "저자씨",
    "적가튼",
    "적까쥐",
    "적까지",
    "적꽈튼",
    "전나",
    "전나게",
    "전나구려",
    "전니",
    "전만싀끼",
    "전만한",
    "전번",
    "젇놔",
    "젇만",
    "절나",
    "절라",
    "절라게",
    "절리",
    "접밥",
    "접밥이",
    "정력",
    "정력강화용품",
    "정력팬티",
    "정력포탈",
    "정사씬모음",
    "정사채널",
    "정신병자",
    "정신병자야",
    "정욕",
    "정우성인용품전문점",
    "정자",
    "젗같",
    "젗까",
    "젗만",
    "젗밥",
    "젗밮",
    "젗빱",
    "젗빺",
    "젗잡고",
    "젙니",
    "제긜",
    "제이제이일본성인만화",
    "져꽈튼",
    "젼마니",
    "졋같다",
    "졋더",
    "졎같다",
    "조가비",
    "조가튼",
    "조가틍",
    "조개쑤셔줘",
    "조건가능",
    "조까는",
    "조까라",
    "조까치",
    "조까튼",
    "조깐다",
    "조깓",
    "조깟",
    "조깠",
    "조깥",
    "조껀",
    "조끗",
    "조끗네",
    "조나빡가",
    "조내",
    "조낸",
    "조넘",
    "조년",
    "조놈",
    "조둥아리",
    "조디다",
    "조디다트자뿔라",
    "조디닥",
    "조디닫",
    "조디묵",
    "조빠라라",
    "조빠지",
    "조빠지게",
    "조빨",
    "조빱",
    "조빺",
    "조빼",
    "조뺑",
    "조뺑이",
    "조뻬",
    "조뼁",
    "조삐리",
    "조센징",
    "조영기",
    "조오까",
    "조오또",
    "조오옷",
    "조옥같네",
    "조온나",
    "조옷가튼",
    "조옷같",
    "조옷나",
    "조옷나게",
    "조옷밥",
    "조옺",
    "조쟁이",
    "조젱이",
    "조져",
    "조지냐",
    "조진다",
    "조질래",
    "조짜",
    "조카툰",
    "조탱",
    "조토",
    "조팝",
    "족가튼",
    "족간네",
    "족같",
    "족같은넘",
    "족까라",
    "족까쥐",
    "족까지",
    "족까치",
    "족바리",
    "족밥",
    "족빠",
    "족빼",
    "족뺑",
    "족뼁",
    "족짜",
    "존나게",
    "존나리",
    "존나시펄년",
    "존내",
    "존네",
    "존마",
    "존마나",
    "존마난",
    "존마니",
    "존만",
    "존만아",
    "존만이",
    "존만한",
    "존망이",
    "존맹구",
    "존먹어",
    "존물",
    "졷까는",
    "졷나",
    "졷내",
    "졷네",
    "졷놔",
    "졸라시뎅이야",
    "졸라시벵",
    "졸라야한닷컴",
    "좀마난",
    "좀만아",
    "좀만한",
    "좁밥운영자",
    "종간나",
    "종나",
    "좉까는",
    "좉나",
    "좉빨아",
    "좋까",
    "좌지",
    "좝것",
    "좨길",
    "죄랄",
    "죠까틍",
    "죠또",
    "죠빠",
    "죠지",
    "죠카태",
    "죠카테",
    "죠카툰",
    "죠콰떼",
    "죠콰태",
    "죠콰테",
    "죠콰퉤",
    "죤만놈",
    "죧같",
    "죨니",
    "죨라",
    "죨리",
    "죳까",
    "죳나",
    "죳밥",
    "죳삐리",
    "죵나",
    "죵늬",
    "죶가튼",
    "죶같은",
    "죶구녕",
    "죶나",
    "죶니",
    "죶댓까면서",
    "죶마난",
    "죶빠지게",
    "죷까",
    "죷맹구",
    "죷카",
    "죷탕",
    "주글놈",
    "주길놈",
    "주민",
    "죽어라운영자",
    "죽은년",
    "죽을년",
    "죽을놈",
    "죽을래게레야",
    "죽이는동영상",
    "죽인년",
    "죽일넘",
    "죽일넘아",
    "죽일년",
    "죽일놈",
    "줄년",
    "줄놈",
    "중딩",
    "줒나",
    "쥐랼",
    "쥐럴",
    "쥐롤",
    "쥐뢀",
    "쥐미",
    "쥐엠",
    "쥐이럴",
    "쥘알",
    "쥘얼",
    "즈랄",
    "즈럴",
    "즉거래",
    "즉발",
    "즐길녀",
    "즐길성인",
    "즐길여",
    "즐넘",
    "즐년",
    "즐놈",
    "즐드샘",
    "즐드셈",
    "즐이나",
    "즐쳐드셈",
    "즤랄",
    "즤랄떠냐",
    "즤랅",
    "즤랼",
    "즤롤",
    "즤뢀",
    "지라알",
    "지랄무지개",
    "지랄삽차기",
    "지랄쌈치기",
    "지랄육갑",
    "지랄이",
    "지랄하",
    "지랄하는",
    "지랄해",
    "지랗",
    "지랠",
    "허버리년",
    "지럴발광",
    "지렐",
    "지롤",
    "지롤발광",
    "지룔",
    "지룰",
    "지미랄",
    "지미럴",
    "지앰",
    "지이라알",
    "지이랄",
    "지이럴",
    "지킴이",
    "지털",
    "직거래",
    "질알",
    "질할",
    "짝부랄",
    "짭것",
    "짭새",
    "쩌껀",
    "쩝밥",
    "쩝쩝훑훑",
    "쩤밥",
    "쪼가",
    "쪼가튼",
    "쪼갈",
    "쪼건",
    "쪼까",
    "쪼까튼",
    "쪼빠리",
    "쪽바리",
    "쪽방새",
    "쪽빠리",
    "쫀나",
    "쫃갇네",
    "쫃같네",
    "쫍밥",
    "쫍빱",
    "쫓같",
    "쫓까",
    "쬬까",
    "쬬다",
    "쬬또",
    "쯰랄",
    "찌랄",
    "찌랄이",
    "찌럴",
    "찐따",
    "찔러",
    "찢어벌라",
    "찢어죽일",
    "찢어죽일년",
    "찢어죽일놈",
    "차고",
    "차앙년",
    "참수",
    "창넘",
    "창놈",
    "창ㅇ년",
    "창여",
    "창질",
    "채널레드TV",
    "채워줘",
    "처머",
    "처머거",
    "처먹",
    "처먹어",
    "처발라",
    "처죽일",
    "처죽일년",
    "처죽일놈",
    "첫경험",
    "첫날밤하는거",
    "청부",
    "청부살인",
    "청부폭력",
    "청산가리",
    "체모",
    "쳐드",
    "쳐머",
    "쳐먹",
    "쳐먹어",
    "쳐발",
    "쳐발라",
    "쳐죽",
    "쳐죽인다",
    "쳐죽일",
    "쳐죽일것",
    "쳐죽일년",
    "쳐죽일놈",
    "쳐쥑",
    "촌나시펄",
    "촌넘",
    "촌년",
    "촌놈",
    "허벌년",
    "촹년",
    "출장마사지",
    "출장서비스",
    "취럴",
    "칀넘아",
    "치마속",
    "칙쇼",
    "카X",
    "카우치",
    "칼라섹스",
    "캐디얼려",
    "캐디올려",
    "캐뛰얼려",
    "캐뛰올려",
    "캐띠얼려",
    "캐띠올려",
    "캐븅신",
    "캐새",
    "캐새키",
    "캐세끼",
    "캐셋키",
    "캐쉐리",
    "커엄새액",
    "커엄새엑",
    "커엄세액",
    "커엄세엑",
    "컴s",
    "컴X",
    "컴샷",
    "컴세엑",
    "컴섹스",
    "케새",
    "케새킹",
    "케세",
    "케세끼",
    "코리아포르노",
    "코섹스",
    "콘돔",
    "콘필",
    "콜걸",
    "콜렉션",
    "콜렉션변환소",
    "콱죽",
    "크림걸",
    "큰년",
    "큰놈",
    "클럽AV스타",
    "큼섹",
    "킬링티비",
    "타부코리아",
    "토탈에로",
    "특수콘돔",
    "판매",
    "팔넘",
    "팔년",
    "팔놈",
    "패스워드",
    "패티쉬",
    "패티시",
    "팬t",
    "팬티",
    "팬티캔디",
    "퍼로노",
    "퍽큐",
    "펄넘",
    "펄년",
    "펄놈",
    "페로몬",
    "페티쉬",
    "페티시",
    "펜섭",
    "펜썹",
    "펜트하우스",
    "펜티",
    "포경",
    "포루x",
    "포루노",
    "포르x",
    "포르노배우",
    "포온섹",
    "폰s",
    "폰녀구함",
    "폰떽",
    "폰번호",
    "폰세엑",
    "폰팅",
    "프리섹스",
    "플래이보이",
    "플레이보이소라가이드",
    "플레이보이온라인",
    "플레이보조개",
    "피임기구",
    "피임용품",
    "필로폰",
    "하고픈녀",
    "한번꽂자",
    "한번주께",
    "한번줄래",
    "할넘",
    "할년",
    "할놈",
    "할타",
    "할터",
    "핥아",
    "핥아줌",
    "함주까",
    "함하자",
    "핫성인용품",
    "해피에로",
    "핸타이",
    "향기콘돔",
    "허벌창",
    "허벌창년",
    "헐넘",
    "헐년",
    "헐놈",
    "헨타이",
    "헬로우콘돔",
    "헴타이",
    "현피",
    "호래자",
    "호레",
    "호레자",
    "호롸",
    "호모",
    "호모섹기",
    "호모쎄끼",
    "호모자식",
    "호바",
    "호봉세씨",
    "호봉쎄끼",
    "호봉쒜리",
    "호빠",
    "호스트바",
    "호스트빠",
    "호스티스",
    "호양년",
    "호오로",
    "호오모",
    "호좁새꺄",
    "호테스바",
    "호테스빠",
    "혼숙",
    "혼음",
    "혼탕",
    "홀오자식",
    "화끈남",
    "화끈녀",
    "화류",
    "화양년",
    "확벌",
    "확주기",
    "확죽",
    "확지기",
    "확찌져",
    "확찟어",
    "확찢어",
    "후까시",
    "후다년",
    "후라덜",
    "후라들년",
    "후라려",
    "후라질",
    "후라질넘",
    "후라질년",
    "후래아",
    "후래아들",
    "후래자",
    "후래자식",
    "후랴",
    "후랴달",
    "후랴들",
    "후러덜넘",
    "후레",
    "후레년",
    "후레발",
    "후레야",
    "후레자",
    "후레자슥",
    "후레자식",
    "후리자",
    "후릴",
    "후릴년",
    "후배위",
    "후벼",
    "후비파",
    "후장입사",
    "훌창",
    "흥분제",
    "흥분할녀",
    "흥정",
    "히로뽕",
    "육변기",
    "노예",
    "무삭제",
    "공산만세",
    "공산제국",
    "괴뢰패당",
    "김정은대장",
    "김정은동지",
    "김정은수령",
    "김정은원수",
    "김정은주석",
    "김정은찬양",
    "김정은칭송",
    "김정일대장",
    "김정일동지",
    "김정일수령",
    "김정일원수",
    "김정일주석",
    "김정일찬양",
    "김정일칭송",
    "남조선",
    "남조선괴뢰",
    "동족대결",
    "력사",
    "령도자",
    "로동",
    "미제침략군",
    "반공화국",
    "백두산대국",
    "북남",
    "북침",
    "사회주의강성",
    "사회주의문명국",
    "사회주의조국",
    "서해무장충돌",
    "선군령도",
    "선군조선",
    "선군혁명",
    "어버이수령",
    "우리민족끼리",
    "위대한수령",
    "인민대중",
    "인민만세",
    "인민의나라",
    "인민찬양",
    "적화통일",
    "조국평화통일",
    "조국해방",
    "조선로동당",
    "조선인민군",
    "주체건축",
    "주체비료",
    "주체사상",
    "주체의태양",
    "주체혁명",
    "패당",
    "국제노동자절",
    "전승기념일",
    "해방념일",
    "노동당창건일",
    "헌법절",
    "반일인민봉기일",
    "조국해방전쟁발발일",
    "조국해방전쟁승리기념일",
    "태양절",
    "노동당",
    "인민공화국",
    "대포동미사일",
    "폭도",
    "반란",
    "폭동",
    "전라디언",
    "전라민국",
    "홍어족",
    "개쌍도",
    "피떡갈비",
    "네다홍",
    "네다통",
    "이기야",
    "멍청도",
    "하프홍어",
    "홍들홍들",
    "홍베충",
    "홍통일체",
    "탈라도",
    "우덜",
    "까보전",
    "운지",
    "노운지",
    "부엉이바위",
    "너무쿤",
    "MC무현",
    "MC노무현",
    "노부엉",
    "노무노무",
    "중력절",
    "뇌물현",
    "노알라",
    "고무통",
    "놈현",
    "노땅체",
    "노로스",
    "노짱버스",
    "노알라무쿵현따",
    "노알라후아크바르",
    "운지천",
    "민주화",
    "좌좀",
    "전땅크",
    "노옹",
    "도요타다이쥬",
    "슨상",
    "슨탄절",
    "김머중",
    "꿈떡마쇼",
    "머중이",
    "대중잣이",
    "변땅크",
    "부릉부릉",
    "원조가카",
    "가카",
    "레이디가카",
    "간철수",
    "간민정음",
    "문죄인",
    "간잽이",
    "한명숙청",
    "세월호",
    "된장녀",
    "엑윽",
    "김치년",
    "김치녀",
    "김치남",
    "보꾸기",
    "골좁이",
    "보라니",
    "보테크",
    "보혐",
    "보빨",
    "보스프레",
    "자스프레",
    "좆목질",
    "좆본",
    "좆선족",
    "좆중고딩",
    "메갈",
    "오유충",
    "씹선비",
    "홍팍",
    "메갈충",
    "낙태충",
    "여시충",
    "갈베",
    "보밍",
    "암베충",
    "삼일한",
    "방사능국",
    "스시국",
    "스시녀",
    "일부심",
    "일밍아웃",
    "융븀",
    "일베",
    "일베충",
    "뮿",
    "일베로",
    "먹먹문",
    "베충",
    "베충이",
    "베츙이",
    "일벤저스",
    "일벤져스",
    "강간충",
    "패륜충",
    "록또",
    "컁껑",
    "청웅",
    "사타부언",
    "욱또",
    "고또",
    "갓베",
    "급식충",
    "똥꼬충",
    "일게이",
    "일기방패",
    "통들통들",
    "통빨망",
    "행게이",
    "헬조선",
    "지옥불반도",
    "정게노땅",
    "뮤쥬휴",
    "ilbe",
    "ilve",
    "1be",
    "일배저장소",
    "일배",
    "일배충",
    "일간배스트",
    "일간best",
    "일간베스트",
    "일베저장소",
    "ASKY",
    "폭동절",
    "좆소",
    "보지민국",
    "근혜찡",
    "숨쉴한",
    "응디시티",
    "니앰홍",
    "노사모",
    "노팩대홍",
    "노팩머홍",
    "노무쿤",
    "멜겔",
    "매갤",
    "2중대신병",
    "이중대신병",
    "틀니딱딱충",
    "로린이",
    "데모크라시",
    "democracy",
    "핵펭귄",
    "핵슨상",
    "엔두",
    "전낙지",
    "저승만",
    "기모딱",
    "까없노",
    "한남충",
    "씹치남",
    "한남또",
    "노무띠",
    "보력지원",
    "자릉내",
    "자들자들",
    "자혐",
    "쩔뚜기",
    "통궈",
    "통탄절",
    "노미넴",
    "노시계",
    "몸또",
    "욷눞",
    "새부",
    "기분됴타",
    "라도",
    "통문회",
    "홍무새",
    "홍어택배",
    "허수애비",
    "투명애비",
    "보지대장부",
    "재기하다",
    "개저씨",
    "페미나치",
    "좆린이",
    "메갈리아",
    "메갈리안",
    "워마드",
    "고기파티",
    "꼴마초",
    "군무새",
    "소추소심",
    "실좆",
    "실잦",
    "이중잦대",
    "자슬아치",
    "젓갈남",
    "메오후",
    "메퇘지",
    "메갈련",
    "WOMAD",
    "씹치",
    "재기각",
    "보혐종자",
    "짜장좆",
    "갈좆",
    "갓양남",
    "걸레좆",
    "꼬춘쿠키",
    "명예클리",
    "명예자지",
    "봊나",
    "애미남",
    "요샤깨",
    "이중좆대",
    "자지랖",
    "투톤자지",
    "핑좆",
    "후전깨",
    "김아재",
    "느개비",
    "megalia",
    "나빼썅",
    "낮욕밤충",
    "냉3온6",
    "냉3온육",
    "냉삼온6",
    "냉삼온육",
    "메리가또",
    "메리둥절",
    "메추",
    "메멘",
    "비혼모",
    "삼물남",
    "삼방울",
    "세계최소추",
    "소라충",
    "안경버무리",
    "자지놈",
    "좆놈",
    "좆들",
    "자지늘보",
    "자지묻다",
    "자짓값",
    "자풀자풀",
    "자확찢",
    "작고안운",
    "칙떡이",
    "한세창",
    "현부양서",
    "워념",
    "메념",
    "메마드",
    "후팔",
    "탈김치",
    "웜퇘지",
    "육병기",
    "꿘충",
    "김치련",
    "재기랄",
    "광주폭동",
    "재기갑",
    "부대열중쉬어",
    "홍어",
    "천조국",
    "앙망문",
    "갓본",
    "게이",
    "김치국",
    "야기분조타",
    "yafeelsogood",
    "언조비카이",
    "감자국",
    "감자도",
    "감귤국",
    "유루유리하지마루요",
    "유리유리다이스키",
    "전라도홍어",
    "이승만",
    "윤보선",
    "박정희",
    "전두한",
    "노태우",
    "김영삼",
    "김대중",
    "노무현",
    "박근혜",
    "문재인",
    "문재앙",
    "문죄앙",
    "문유라",
    "문재지변",
    "문제인",
    "틀딱",
    "문구라",
    "문둥이",
    "문레기",
    "문벌구",
    "문듀윌",
    "먼저인",
    "문죄아",
    "문치매",
    "문시체팔이",
    "무뇌인",
    "문좌인",
    "박그네",
    "박끄네",
    "바끄네",
    "닭그네",
    "닭근혜",
    "쥐명박",
    "순시리",
    "순실이",
    "최순실",
    "정유라",
    "쥐박이",
    "문완용",
    "이명박",
    "공지사항",
    "시스템",
    "운영",
    "운영팀",
    "무료보석",
    "운영진",
    "시스템관리자",
    "무료캐시",
    "무료이벤트",
    "이벤트담당자",
    "이벤트",
    "CS운영자",
    "GM운영자",
    "공지입니다",
    "알림",
    "알립니다",
    "알리미",
    "캐시이벤트",
    "게임마스터",
    "게임매니저",
    "관리자",
    "지엠",
    "CM",
    "씨엠",
    "GM",
    "공지",
    "광고",
    "영자",
    "불법프로그램",
    "핵프로그램",
    "GM담당",
    "GM담당자",
    "스피드핵",
    "스핵",
    "개발",
    "기획자",
    "담당자",
    "담당장",
    "운영원",
    "이밴트",
    "현거래",
    "캐쉬",
    "캐시",
    "무료",
    "무료로드려요",
    "무료로드립니다",
    "무료인증",
    "무료캐쉬",
    "무삭제",
    "무한게정",
    "무한계정",
    "문상",
    "버그캐쉬",
    "버그캐시",
    "버그프로그램",
    "아이템",
    "아이템매니아",
    "아이템메니아",
    "아이템배이",
    "아이템베이",
    "현금",
    "현금게임",
    "현금최대",
    "현금충전",
    "현상수배기",
    "현질",
    "현찰",
    "refundup",
    "환뷸",
    "환불",
    "refund",
    "gamemaster",
    "고객센터",
    "게임마스터운영",
    "운영자",
    "삽니다",
    "충전이벤트",
    "추천ID",
    "추천아이디",
    "추천인",
    "공짜버그",
    "공짜충전",
    "공짜캐쉬",
    "공짜캐시",
    "머늬사세요",
    "머늬판매",
    "머늬팜",
    "머늬팝니다",
    "머니사세요",
    "머니세일",
    "머니올려요",
    "머니장사",
    "머니판매",
    "머니팜",
    "머니팝니다",
    "머니필요한",
    "머니헌터",
    "모니사세요",
    "모니세일",
    "모니팜",
    "모니팝니다",
    "주민등록번호생성기",
    "주민등록생성기",
    "캐쉬공짜",
    "캐쉬무료",
    "캐쉬버그",
    "캐쉬얼려",
    "캐쉬올려",
    "캐쉬올리기",
    "캐시공짜",
    "캐시무료",
    "캐시버그",
    "캐시얼려",
    "캐시올려",
    "캐씨버그",
    "캐씨얼려",
    "캐씨올려",
    "gamemanager",
    "manager",
    "master",
    "alert",
    "admin",
    "SYSTEM",
    "돈버는",
    "돈복사",
    "돈선불",
    "상담원",
    "케쉬버그",
    "케쉬얼려",
    "케쉬올려",
    "케쉬",
    "케시",
    "케시버그",
    "팔아여",
    "팔아요",
    "팝니다",
    "topup",
    "r5e",
    "5h1t",
    "5hit",
    "a55",
    "anal",
    "anus",
    "ar5e",
    "arrse",
    "arse",
    "ass",
    "ass-fucker",
    "asses",
    "assfucker",
    "assfukka",
    "asshole",
    "assholes",
    "asswhole",
    "a_s_s",
    "b!tch",
    "b00bs",
    "b17ch",
    "b1tch",
    "ballbag",
    "balls",
    "ballsack",
    "bastard",
    "beastial",
    "beastiality",
    "bellend",
    "bestial",
    "bestiality",
    "bi+ch",
    "biatch",
    "bitch",
    "bitcher",
    "bitchers",
    "bitches",
    "bitchin",
    "bitching",
    "bloody",
    "blowjob",
    "blowjob",
    "blowjobs",
    "boiolas",
    "bollock",
    "bollok",
    "boner",
    "boob",
    "boobs",
    "booobs",
    "boooobs",
    "booooobs",
    "booooooobs",
    "breasts",
    "buceta",
    "bugger",
    "bum",
    "bunnyfucker",
    "butt",
    "butthole",
    "buttmuch",
    "buttplug",
    "c0ck",
    "c0cksucker",
    "carpetmuncher",
    "cawk",
    "chink",
    "cipa",
    "cl1t",
    "clit",
    "clitoris",
    "clits",
    "cnut",
    "cock",
    "cock-sucker",
    "cockface",
    "cockhead",
    "cockmunch",
    "cockmuncher",
    "cocks",
    "cocksuck",
    "cocksucked",
    "cocksucker",
    "cocksucking",
    "cocksucks",
    "cocksuka",
    "cocksukka",
    "cok",
    "cokmuncher",
    "coksucka",
    "coon",
    "cox",
    "crap",
    "cum",
    "cummer",
    "cumming",
    "cums",
    "cumshot",
    "cunilingus",
    "cunillingus",
    "cunnilingus",
    "cunt",
    "cuntlick",
    "cuntlicker",
    "cuntlicking",
    "cunts",
    "cyalis",
    "cyberfuc",
    "cyberfuck",
    "cyberfucked",
    "cyberfucker",
    "cyberfuckers",
    "cyberfucking",
    "d1ck",
    "damn",
    "dick",
    "dickhead",
    "dildo",
    "dildos",
    "dink",
    "dinks",
    "dirsa",
    "dlck",
    "dog-fucker",
    "doggin",
    "dogging",
    "donkeyribber",
    "doosh",
    "duche",
    "dyke",
    "ejaculate",
    "ejaculated",
    "ejaculates",
    "ejaculating",
    "ejaculatings",
    "ejaculation",
    "ejakulate",
    "fuck",
    "fucker",
    "f4nny",
    "fag",
    "fagging",
    "faggitt",
    "faggot",
    "faggs",
    "fagot",
    "fagots",
    "fags",
    "fanny",
    "fannyflaps",
    "fannyfucker",
    "fanyy",
    "fatass",
    "fcuk",
    "fcuker",
    "fcuking",
    "feck",
    "fecker",
    "felching",
    "fellate",
    "fellatio",
    "fingerfuck",
    "fingerfucked",
    "fingerfucker",
    "fingerfuckers",
    "fingerfucking",
    "fingerfucks",
    "fistfuck",
    "fistfucked",
    "fistfucker",
    "fistfuckers",
    "fistfucking",
    "fistfuckings",
    "fistfucks",
    "flange",
    "fook",
    "fooker",
    "fuck",
    "fucka",
    "fucked",
    "fucker",
    "fuckers",
    "fuckhead",
    "fuckheads",
    "fuckin",
    "fucking",
    "fuckings",
    "fuckingshitmotherfucker",
    "fuckme",
    "fucks",
    "fuckwhit",
    "fuckwit",
    "fudgepacker",
    "fuk",
    "fuker",
    "fukker",
    "fukkin",
    "fuks",
    "fukwhit",
    "fukwit",
    "fux",
    "fux0r",
    "f_u_c_k",
    "gangbang",
    "gangbanged",
    "gangbangs",
    "gaylord",
    "gaysex",
    "goatse",
    "god-dam",
    "god-damned",
    "goddamn",
    "goddamned",
    "hardcoresex",
    "hell",
    "heshe",
    "hoar",
    "hoare",
    "hoer",
    "homo",
    "hore",
    "horniest",
    "horny",
    "hotsex",
    "jack-off",
    "jackoff",
    "jap",
    "jerk-off",
    "jism",
    "jiz",
    "jizm",
    "jizz",
    "kawk",
    "knob",
    "knobead",
    "knobed",
    "knobend",
    "knobhead",
    "knobjocky",
    "knobjokey",
    "kock",
    "kondum",
    "kondums",
    "kum",
    "kummer",
    "kumming",
    "kums",
    "kunilingus",
    "l3i+ch",
    "l3itch",
    "labia",
    "lmfao",
    "lust",
    "lusting",
    "m0f0",
    "m0fo",
    "m45terbate",
    "ma5terb8",
    "ma5terbate",
    "masochist",
    "master-bate",
    "masterb8",
    "masterbat",
    "masterbat3",
    "masterbate",
    "masterbation",
    "masterbations",
    "masturbate",
    "mo-fo",
    "mof0",
    "mofo",
    "mothafuck",
    "mothafucka",
    "mothafuckas",
    "mothafuckaz",
    "mothafucked",
    "mothafucker",
    "mothafuckers",
    "mothafuckin",
    "mothafucking",
    "mothafuckings",
    "mothafucks",
    "motherfucker",
    "motherfuck",
    "motherfucked",
    "motherfucker",
    "motherfuckers",
    "motherfuckin",
    "motherfucking",
    "motherfuckings",
    "motherfuckka",
    "motherfucks",
    "muff",
    "mutha",
    "muthafecker",
    "muthafuckker",
    "muther",
    "mutherfucker",
    "n1gga",
    "n1gger",
    "nazi",
    "nigg3r",
    "nigg4h",
    "nigga",
    "niggah",
    "niggas",
    "niggaz",
    "nigger",
    "niggers",
    "nob",
    "nobjokey",
    "nobhead",
    "nobjocky",
    "nobjokey",
    "numbnuts",
    "nutsack",
    "orgasim",
    "orgasims",
    "orgasm",
    "orgasms",
    "p0rn",
    "pawn",
    "pecker",
    "penis",
    "penisfucker",
    "phonesex",
    "phuck",
    "phuk",
    "phuked",
    "phuking",
    "phukked",
    "phukking",
    "phuks",
    "phuq",
    "pigfucker",
    "pimpis",
    "piss",
    "pissed",
    "pisser",
    "pissers",
    "pisses",
    "pissflaps",
    "pissin",
    "pissing",
    "pissoff",
    "poop",
    "porn",
    "porno",
    "pornography",
    "pornos",
    "prick",
    "pricks",
    "pron",
    "pube",
    "pusse",
    "pussi",
    "pussies",
    "pussy",
    "pussys",
    "rectum",
    "retard",
    "rimjaw",
    "rimming",
    "shit",
    "s.o.b.",
    "sadist",
    "schlong",
    "screwing",
    "scroat",
    "scrote",
    "scrotum",
    "semen",
    "sex",
    "sh!+",
    "sh!t",
    "sh1t",
    "shag",
    "shagger",
    "shaggin",
    "shagging",
    "shemale",
    "shi+",
    "shit",
    "shitdick",
    "shite",
    "shited",
    "shitey",
    "shitfuck",
    "shitfull",
    "shithead",
    "shiting",
    "shitings",
    "shits",
    "shitted",
    "shitter",
    "shitters",
    "shitting",
    "shittings",
    "shitty",
    "skank",
    "slut",
    "sluts",
    "smegma",
    "smut",
    "snatch",
    "son-of-a-bitch",
    "spac",
    "spunk",
    "s_h_i_t",
    "t1tt1e5",
    "t1tties",
    "teets",
    "teez",
    "testical",
    "testicle",
    "tit",
    "titfuck",
    "tits",
    "titt",
    "tittie5",
    "tittiefucker",
    "titties",
    "tittyfuck",
    "tittywank",
    "titwank",
    "tosser",
    "turd",
    "tw4t",
    "twat",
    "twathead",
    "twatty",
    "twunt",
    "twunter",
    "v14gra",
    "v1gra",
    "vagina",
    "viagra",
    "vulva",
    "w00se",
    "wang",
    "wank",
    "wanker",
    "wanky",
    "whoar",
    "whore",
    "willies",
    "willy",
    "xrated",
    "xxx",
    "arsehole",
    "assbag",
    "assbandit",
    "assbanger",
    "assbite",
    "assclown",
    "asscock",
    "asscracker",
    "assface",
    "assfuck",
    "assgoblin",
    "asshat",
    "ass-hat",
    "asshead",
    "asshopper",
    "ass-jabber",
    "assjacker",
    "asslick",
    "asslicker",
    "assmonkey",
    "assmunch",
    "assmuncher",
    "assnigger",
    "asspirate",
    "ass-pirate",
    "assshit",
    "assshole",
    "asssucker",
    "asswad",
    "asswipe",
    "axwound",
    "bampot",
    "beaner",
    "bitchass",
    "bitchtits",
    "bitchy",
    "bollocks",
    "bollox",
    "brotherfucker",
    "bullshit",
    "bumblefuck",
    "buttplug",
    "buttfucka",
    "butt-pirate",
    "buttfucker",
    "cameltoe",
    "carpetmuncher",
    "chesticle",
    "chinc",
    "choad",
    "chode",
    "clitface",
    "clitfuck",
    "clusterfuck",
    "cockass",
    "cockbite",
    "cockburger",
    "cockfucker",
    "cockjockey",
    "cockknoker",
    "cockmaster",
    "cockmongler",
    "cockmongruel",
    "cockmonkey",
    "cocknose",
    "cocknugget",
    "cockshit",
    "cocksmith",
    "cocksmoke",
    "cocksmoker",
    "cocksniffer",
    "cockwaffle",
    "coochie",
    "coochy",
    "cooter",
    "cracker",
    "cumbubble",
    "cumdumpster",
    "cumguzzler",
    "cumjockey",
    "cumslut",
    "cumtart",
    "cunnie",
    "cuntass",
    "cuntface",
    "cunthole",
    "cuntrag",
    "cuntslut",
    "dago",
    "deggo",
    "dickbag",
    "dickbeaters",
    "dickface",
    "dickfuck",
    "dickfucker",
    "dickhole",
    "dickjuice",
    "dickmilk",
    "dickmonger",
    "dicks",
    "dickslap",
    "dick-sneeze",
    "dicksucker",
    "dicksucking",
    "dicktickler",
    "dickwad",
    "dickweasel",
    "dickweed",
    "dickwod",
    "dike",
    "dipshit",
    "doochbag",
    "dookie",
    "douche",
    "douchebag",
    "douche-fag",
    "douchewaffle",
    "dumass",
    "dumbass",
    "dumbfuck",
    "dumbshit",
    "dumshit",
    "fagbag",
    "fagfucker",
    "faggit",
    "faggotcock",
    "fagtard",
    "feltch",
    "flamer",
    "fuckass",
    "fuckbag",
    "fuckboy",
    "fuckbrain",
    "fuckbutt",
    "fuckbutter",
    "fuckersucker",
    "fuckface",
    "fuckhole",
    "fucknut",
    "fucknutt",
    "fuckoff",
    "fuckstick",
    "fucktard",
    "fucktart",
    "fuckup",
    "fuckwad",
    "fuckwitt",
    "gay",
    "gayass",
    "gaybob",
    "gaydo",
    "gayfuck",
    "gayfuckist",
    "gaytard",
    "gaywad",
    "goddamnit",
    "gooch",
    "gook",
    "gringo",
    "guido",
    "handjob",
    "hardon",
    "heeb",
    "ho",
    "hoe",
    "homodumbshit",
    "honkey",
    "humping",
    "jackass",
    "jagoff",
    "jerkoff",
    "jerkass",
    "jigaboo",
    "junglebunny",
    "kike",
    "kooch",
    "kootch",
    "kraut",
    "kunt",
    "kyke",
    "lameass",
    "lardass",
    "lesbian",
    "lesbo",
    "lezzie",
    "mcfagget",
    "mick",
    "minge",
    "muffdiver",
    "munging",
    "negro",
    "nigaboo",
    "niglet",
    "nutsack",
    "paki",
    "panooch",
    "peckerhead",
    "penisbanger",
    "penispuffer",
    "pissedoff",
    "polesmoker",
    "pollock",
    "poon",
    "poonani",
    "poonany",
    "poontang",
    "porchmonkey",
    "punanny",
    "punta",
    "pussylicking",
    "puto",
    "queef",
    "queer",
    "queerbait",
    "queerhole",
    "renob",
    "rimjob",
    "ruski",
    "sandnigger",
    "shitass",
    "shitbag",
    "shitbagger",
    "shitbrains",
    "shitbreath",
    "shitcanned",
    "shitcunt",
    "shitface",
    "shitfaced",
    "shithole",
    "shithouse",
    "shitspitter",
    "shitstain",
    "shittiest",
    "shiz",
    "shiznit",
    "skeet",
    "skullfuck",
    "slutbag",
    "smeg",
    "spic",
    "spick",
    "splooge",
    "spook",
    "suckass",
    "tard",
    "thundercunt",
    "twatlips",
    "twats",
    "twatwaffle",
    "unclefucker",
    "vag",
    "vajayjay",
    "va-j-j",
    "vjayjay",
    "wankjob",
    "wetback",
    "whorebag",
    "whoreface",
    "wop",
    "breeder",
    "cocklump",
    "creampie",
    "doublelift",
    "dumbcunt",
    "fuckoff",
    "incest",
    "jackOff",
    "poopuncher",
    "sandler",
    "cockeye",
    "crotte",
    "foah",
    "fucktwat",
    "jaggi",
    "kunja",
    "pust",
    "sanger",
    "seks",
    "slag",
    "zubb",
    "2g1c",
    "2girls1cup",
    "acrotomophilia",
    "alabamahotpocket",
    "alaskanpipeline",
    "anilingus",
    "apeshit",
    "autoerotic",
    "babeland",
    "babybatter",
    "babyjuice",
    "ballgag",
    "ballgravy",
    "ballkicking",
    "balllicking",
    "ballsack",
    "ballsucking",
    "bangbros",
    "bareback",
    "barelylegal",
    "barenaked",
    "bastardo",
    "bastinado",
    "bbw",
    "bdsm",
    "beaners",
    "beavercleaver",
    "beaverlips",
    "bigblack",
    "bigbreasts",
    "bigknockers",
    "bigtits",
    "bimbos",
    "birdlock",
    "blackcock",
    "blondeaction",
    "blondeonblondeaction",
    "blowyourload",
    "bluewaffle",
    "blumpkin",
    "bondage",
    "bootycall",
    "brownshowers",
    "brunetteaction",
    "bukkake",
    "bulldyke",
    "bulletvibe",
    "bunghole",
    "busty",
    "buttcheeks",
    "camgirl",
    "camslut",
    "camwhore",
    "chocolaterosebuds",
    "circlejerk",
    "clevelandsteamer",
    "cloverclamps",
    "coprolagnia",
    "coprophilia",
    "cornhole",
    "coons",
    "darkie",
    "daterape",
    "deepthroat",
    "dendrophilia",
    "dingleberry",
    "dingleberries",
    "dirtypillows",
    "dirtysanchez",
    "doggiestyle",
    "doggystyle",
    "dogstyle",
    "dolcett",
    "domination",
    "dominatrix",
    "dommes",
    "donkeypunch",
    "doubledong",
    "doublepenetration",
    "dpaction",
    "dryhump",
    "dvda",
    "eatmyass",
    "ecchi",
    "erotic",
    "erotism",
    "escort",
    "eunuch",
    "fecal",
    "felch",
    "femalesquirting",
    "femdom",
    "figging",
    "fingerbang",
    "fingering",
    "fisting",
    "footfetish",
    "footjob",
    "frotting",
    "fuckbuttons",
    "fucktards",
    "futanari",
    "gangbang",
    "gaysex",
    "genitals",
    "giantcock",
    "girlon",
    "girlontop",
    "girlsgonewild",
    "goatcx",
    "goddamn",
    "gokkun",
    "goldenshower",
    "goodpoop",
    "googirl",
    "goregasm",
    "grope",
    "groupsex",
    "g-spot",
    "guro",
    "handjob",
    "hardcore",
    "hentai",
    "homoerotic",
    "hooker",
    "hotcarl",
    "hotchick",
    "howtokill",
    "howtomurder",
    "hugefat",
    "intercourse",
    "jailbait",
    "jellydonut",
    "jiggaboo",
    "jiggerboo",
    "juggs",
    "kinbaku",
    "kinkster",
    "kinky",
    "knobbing",
    "leatherrestraint",
    "leatherstraightjacket",
    "lemonparty",
    "lolita",
    "lovemaking",
    "makemecome",
    "malesquirting",
    "menageatrois",
    "milf",
    "missionaryposition",
    "moundofvenus",
    "mrhands",
    "muffdiver",
    "muffdiving",
    "nambla",
    "nawashi",
    "neonazi",
    "nignog",
    "nimphomania",
    "nipple",
    "nipples",
    "nsfwimages",
    "nude",
    "nudity",
    "nympho",
    "nymphomania",
    "octopussy",
    "omorashi",
    "onecuptwogirls",
    "oneguyonejar",
    "orgy",
    "paedophile",
    "panties",
    "panty",
    "pedobear",
    "pedophile",
    "pegging",
    "phonesex",
    "pieceofshit",
    "pisspig",
    "playboy",
    "pleasurechest",
    "polesmoker",
    "ponyplay",
    "poof",
    "punany",
    "poopchute",
    "princealbertpiercing",
    "pthc",
    "pubes",
    "queaf",
    "quim",
    "raghead",
    "ragingboner",
    "rape",
    "raping",
    "rapist",
    "reversecowgirl",
    "rosypalm",
    "rosypalmandher5sisters",
    "rustytrombone",
    "sadism",
    "santorum",
    "scat",
    "scissoring",
    "sexo",
    "sexy",
    "shavedbeaver",
    "shavedpussy",
    "shibari",
    "shitblimp",
    "shota",
    "shrimping",
    "slanteye",
    "s&m",
    "snowballing",
    "sodomize",
    "sodomy",
    "sploogemoose",
    "spooge",
    "spreadlegs",
    "strapon",
    "strappado",
    "stripclub",
    "styledoggy",
    "suck",
    "sucks",
    "suicidegirls",
    "sultrywomen",
    "swastika",
    "swinger",
    "taintedlove",
    "tastemy",
    "teabagging",
    "threesome",
    "throating",
    "tiedup",
    "tightwhite",
    "titty",
    "tongueina",
    "topless",
    "towelhead",
    "tranny",
    "tribadism",
    "tubgirl",
    "tushy",
    "twink",
    "twinkie",
    "twogirlsonecup",
    "undressing",
    "upskirt",
    "urethraplay",
    "urophilia",
    "venusmound",
    "vibrator",
    "violetwand",
    "vorarephilia",
    "voyeur",
    "wetdream",
    "whitepower",
    "wrappingmen",
    "wrinkledstarfish",
    "xx",
    "yaoi",
    "yellowshowers",
    "yiffy",
    "zoophilia"
]