{
  "configVersion": 2,
  "packages": [
    {
      "name": "_fe_analyzer_shared",
      "rootUri": "file:///C:/flutter/.pub-cache/hosted/pub.dartlang.org/_fe_analyzer_shared-30.0.0",
      "packageUri": "lib/",
      "languageVersion": "2.12"
    },
    {
      "name": "advertising_id",
      "rootUri": "file:///C:/flutter/.pub-cache/hosted/pub.dartlang.org/advertising_id-2.0.0",
      "packageUri": "lib/",
      "languageVersion": "2.12"
    },
    {
      "name": "analyzer",
      "rootUri": "file:///C:/flutter/.pub-cache/hosted/pub.dartlang.org/analyzer-2.7.0",
      "packageUri": "lib/",
      "languageVersion": "2.14"
    },
    {
      "name": "animations",
      "rootUri": "file:///C:/flutter/.pub-cache/hosted/pub.dartlang.org/animations-2.0.2",
      "packageUri": "lib/",
      "languageVersion": "2.12"
    },
    {
      "name": "app_tracking_transparency",
      "rootUri": "file:///C:/flutter/.pub-cache/hosted/pub.dartlang.org/app_tracking_transparency-2.0.2+1",
      "packageUri": "lib/",
      "languageVersion": "2.12"
    },
    {
      "name": "archive",
      "rootUri": "file:///C:/flutter/.pub-cache/hosted/pub.dartlang.org/archive-3.1.6",
      "packageUri": "lib/",
      "languageVersion": "2.12"
    },
    {
      "name": "args",
      "rootUri": "file:///C:/flutter/.pub-cache/hosted/pub.dartlang.org/args-2.3.0",
      "packageUri": "lib/",
      "languageVersion": "2.12"
    },
    {
      "name": "async",
      "rootUri": "file:///C:/flutter/.pub-cache/hosted/pub.dartlang.org/async-2.8.1",
      "packageUri": "lib/",
      "languageVersion": "2.12"
    },
    {
      "name": "badges",
      "rootUri": "file:///C:/flutter/.pub-cache/hosted/pub.dartlang.org/badges-2.0.1",
      "packageUri": "lib/",
      "languageVersion": "2.12"
    },
    {
      "name": "base58check",
      "rootUri": "file:///C:/flutter/.pub-cache/hosted/pub.dartlang.org/base58check-2.0.0",
      "packageUri": "lib/",
      "languageVersion": "2.12"
    },
    {
      "name": "bech32",
      "rootUri": "file:///C:/flutter/.pub-cache/hosted/pub.dartlang.org/bech32-0.2.1",
      "packageUri": "lib/",
      "languageVersion": "2.12"
    },
    {
      "name": "boolean_selector",
      "rootUri": "file:///C:/flutter/.pub-cache/hosted/pub.dartlang.org/boolean_selector-2.1.0",
      "packageUri": "lib/",
      "languageVersion": "2.12"
    },
    {
      "name": "buffer",
      "rootUri": "file:///C:/flutter/.pub-cache/hosted/pub.dartlang.org/buffer-1.1.1",
      "packageUri": "lib/",
      "languageVersion": "2.12"
    },
    {
      "name": "build",
      "rootUri": "file:///C:/flutter/.pub-cache/hosted/pub.dartlang.org/build-2.1.1",
      "packageUri": "lib/",
      "languageVersion": "2.14"
    },
    {
      "name": "build_config",
      "rootUri": "file:///C:/flutter/.pub-cache/hosted/pub.dartlang.org/build_config-1.0.0",
      "packageUri": "lib/",
      "languageVersion": "2.12"
    },
    {
      "name": "build_daemon",
      "rootUri": "file:///C:/flutter/.pub-cache/hosted/pub.dartlang.org/build_daemon-3.0.1",
      "packageUri": "lib/",
      "languageVersion": "2.14"
    },
    {
      "name": "build_resolvers",
      "rootUri": "file:///C:/flutter/.pub-cache/hosted/pub.dartlang.org/build_resolvers-2.0.4",
      "packageUri": "lib/",
      "languageVersion": "2.12"
    },
    {
      "name": "build_runner",
      "rootUri": "file:///C:/flutter/.pub-cache/hosted/pub.dartlang.org/build_runner-2.1.4",
      "packageUri": "lib/",
      "languageVersion": "2.14"
    },
    {
      "name": "build_runner_core",
      "rootUri": "file:///C:/flutter/.pub-cache/hosted/pub.dartlang.org/build_runner_core-7.2.2",
      "packageUri": "lib/",
      "languageVersion": "2.14"
    },
    {
      "name": "built_collection",
      "rootUri": "file:///C:/flutter/.pub-cache/hosted/pub.dartlang.org/built_collection-5.1.1",
      "packageUri": "lib/",
      "languageVersion": "2.12"
    },
    {
      "name": "built_value",
      "rootUri": "file:///C:/flutter/.pub-cache/hosted/pub.dartlang.org/built_value-8.1.2",
      "packageUri": "lib/",
      "languageVersion": "2.12"
    },
    {
      "name": "cached_network_image",
      "rootUri": "file:///C:/flutter/.pub-cache/hosted/pub.dartlang.org/cached_network_image-3.1.0",
      "packageUri": "lib/",
      "languageVersion": "2.12"
    },
    {
      "name": "cached_network_image_platform_interface",
      "rootUri": "file:///C:/flutter/.pub-cache/hosted/pub.dartlang.org/cached_network_image_platform_interface-1.0.0",
      "packageUri": "lib/",
      "languageVersion": "2.12"
    },
    {
      "name": "cached_network_image_web",
      "rootUri": "file:///C:/flutter/.pub-cache/hosted/pub.dartlang.org/cached_network_image_web-1.0.1",
      "packageUri": "lib/",
      "languageVersion": "2.12"
    },
    {
      "name": "characters",
      "rootUri": "file:///C:/flutter/.pub-cache/hosted/pub.dartlang.org/characters-1.1.0",
      "packageUri": "lib/",
      "languageVersion": "2.12"
    },
    {
      "name": "charcode",
      "rootUri": "file:///C:/flutter/.pub-cache/hosted/pub.dartlang.org/charcode-1.3.1",
      "packageUri": "lib/",
      "languageVersion": "2.12"
    },
    {
      "name": "checked_yaml",
      "rootUri": "file:///C:/flutter/.pub-cache/hosted/pub.dartlang.org/checked_yaml-2.0.1",
      "packageUri": "lib/",
      "languageVersion": "2.12"
    },
    {
      "name": "cli_util",
      "rootUri": "file:///C:/flutter/.pub-cache/hosted/pub.dartlang.org/cli_util-0.3.5",
      "packageUri": "lib/",
      "languageVersion": "2.12"
    },
    {
      "name": "clock",
      "rootUri": "file:///C:/flutter/.pub-cache/hosted/pub.dartlang.org/clock-1.1.0",
      "packageUri": "lib/",
      "languageVersion": "2.12"
    },
    {
      "name": "cloud_firestore",
      "rootUri": "file:///C:/flutter/.pub-cache/hosted/pub.dartlang.org/cloud_firestore-2.5.4",
      "packageUri": "lib/",
      "languageVersion": "2.12"
    },
    {
      "name": "cloud_firestore_platform_interface",
      "rootUri": "file:///C:/flutter/.pub-cache/hosted/pub.dartlang.org/cloud_firestore_platform_interface-5.4.3",
      "packageUri": "lib/",
      "languageVersion": "2.12"
    },
    {
      "name": "cloud_firestore_web",
      "rootUri": "file:///C:/flutter/.pub-cache/hosted/pub.dartlang.org/cloud_firestore_web-2.4.4",
      "packageUri": "lib/",
      "languageVersion": "2.12"
    },
    {
      "name": "cloud_functions",
      "rootUri": "file:///C:/flutter/.pub-cache/hosted/pub.dartlang.org/cloud_functions-3.0.5",
      "packageUri": "lib/",
      "languageVersion": "2.12"
    },
    {
      "name": "cloud_functions_platform_interface",
      "rootUri": "file:///C:/flutter/.pub-cache/hosted/pub.dartlang.org/cloud_functions_platform_interface-5.0.12",
      "packageUri": "lib/",
      "languageVersion": "2.12"
    },
    {
      "name": "cloud_functions_web",
      "rootUri": "file:///C:/flutter/.pub-cache/hosted/pub.dartlang.org/cloud_functions_web-4.0.14",
      "packageUri": "lib/",
      "languageVersion": "2.12"
    },
    {
      "name": "code_builder",
      "rootUri": "file:///C:/flutter/.pub-cache/hosted/pub.dartlang.org/code_builder-4.1.0",
      "packageUri": "lib/",
      "languageVersion": "2.12"
    },
    {
      "name": "collection",
      "rootUri": "file:///C:/flutter/.pub-cache/hosted/pub.dartlang.org/collection-1.15.0",
      "packageUri": "lib/",
      "languageVersion": "2.12"
    },
    {
      "name": "connectivity_plus",
      "rootUri": "file:///C:/flutter/.pub-cache/hosted/pub.dartlang.org/connectivity_plus-1.4.0",
      "packageUri": "lib/",
      "languageVersion": "2.12"
    },
    {
      "name": "connectivity_plus_linux",
      "rootUri": "file:///C:/flutter/.pub-cache/hosted/pub.dartlang.org/connectivity_plus_linux-1.1.0",
      "packageUri": "lib/",
      "languageVersion": "2.12"
    },
    {
      "name": "connectivity_plus_macos",
      "rootUri": "file:///C:/flutter/.pub-cache/hosted/pub.dartlang.org/connectivity_plus_macos-1.2.1",
      "packageUri": "lib/",
      "languageVersion": "2.12"
    },
    {
      "name": "connectivity_plus_platform_interface",
      "rootUri": "file:///C:/flutter/.pub-cache/hosted/pub.dartlang.org/connectivity_plus_platform_interface-1.1.0",
      "packageUri": "lib/",
      "languageVersion": "2.12"
    },
    {
      "name": "connectivity_plus_web",
      "rootUri": "file:///C:/flutter/.pub-cache/hosted/pub.dartlang.org/connectivity_plus_web-1.1.0+1",
      "packageUri": "lib/",
      "languageVersion": "2.12"
    },
    {
      "name": "connectivity_plus_windows",
      "rootUri": "file:///C:/flutter/.pub-cache/hosted/pub.dartlang.org/connectivity_plus_windows-1.2.0",
      "packageUri": "lib/",
      "languageVersion": "2.12"
    },
    {
      "name": "convert",
      "rootUri": "file:///C:/flutter/.pub-cache/hosted/pub.dartlang.org/convert-3.0.1",
      "packageUri": "lib/",
      "languageVersion": "2.12"
    },
    {
      "name": "cross_file",
      "rootUri": "file:///C:/flutter/.pub-cache/hosted/pub.dartlang.org/cross_file-0.3.1+5",
      "packageUri": "lib/",
      "languageVersion": "2.12"
    },
    {
      "name": "crypto",
      "rootUri": "file:///C:/flutter/.pub-cache/hosted/pub.dartlang.org/crypto-3.0.1",
      "packageUri": "lib/",
      "languageVersion": "2.12"
    },
    {
      "name": "csslib",
      "rootUri": "file:///C:/flutter/.pub-cache/hosted/pub.dartlang.org/csslib-0.17.1",
      "packageUri": "lib/",
      "languageVersion": "2.12"
    },
    {
      "name": "cupertino_icons",
      "rootUri": "file:///C:/flutter/.pub-cache/hosted/pub.dartlang.org/cupertino_icons-1.0.3",
      "packageUri": "lib/",
      "languageVersion": "2.12"
    },
    {
      "name": "dart_style",
      "rootUri": "file:///C:/flutter/.pub-cache/hosted/pub.dartlang.org/dart_style-2.2.0",
      "packageUri": "lib/",
      "languageVersion": "2.12"
    },
    {
      "name": "date_time_picker",
      "rootUri": "file:///C:/flutter/.pub-cache/hosted/pub.dartlang.org/date_time_picker-2.1.0",
      "packageUri": "lib/",
      "languageVersion": "2.12"
    },
    {
      "name": "dbus",
      "rootUri": "file:///C:/flutter/.pub-cache/hosted/pub.dartlang.org/dbus-0.5.6",
      "packageUri": "lib/",
      "languageVersion": "2.12"
    },
    {
      "name": "device_frame",
      "rootUri": "file:///C:/flutter/.pub-cache/hosted/pub.dartlang.org/device_frame-0.4.2",
      "packageUri": "lib/",
      "languageVersion": "2.12"
    },
    {
      "name": "device_info_plus",
      "rootUri": "file:///C:/flutter/.pub-cache/hosted/pub.dartlang.org/device_info_plus-2.2.0",
      "packageUri": "lib/",
      "languageVersion": "2.12"
    },
    {
      "name": "device_info_plus_linux",
      "rootUri": "file:///C:/flutter/.pub-cache/hosted/pub.dartlang.org/device_info_plus_linux-2.1.0",
      "packageUri": "lib/",
      "languageVersion": "2.12"
    },
    {
      "name": "device_info_plus_macos",
      "rootUri": "file:///C:/flutter/.pub-cache/hosted/pub.dartlang.org/device_info_plus_macos-2.2.0",
      "packageUri": "lib/",
      "languageVersion": "2.12"
    },
    {
      "name": "device_info_plus_platform_interface",
      "rootUri": "file:///C:/flutter/.pub-cache/hosted/pub.dartlang.org/device_info_plus_platform_interface-2.2.0",
      "packageUri": "lib/",
      "languageVersion": "2.12"
    },
    {
      "name": "device_info_plus_web",
      "rootUri": "file:///C:/flutter/.pub-cache/hosted/pub.dartlang.org/device_info_plus_web-2.1.0",
      "packageUri": "lib/",
      "languageVersion": "2.12"
    },
    {
      "name": "device_info_plus_windows",
      "rootUri": "file:///C:/flutter/.pub-cache/hosted/pub.dartlang.org/device_info_plus_windows-2.1.0",
      "packageUri": "lib/",
      "languageVersion": "2.12"
    },
    {
      "name": "device_preview",
      "rootUri": "file:///C:/flutter/.pub-cache/hosted/pub.dartlang.org/device_preview-0.7.4",
      "packageUri": "lib/",
      "languageVersion": "2.12"
    },
    {
      "name": "dio",
      "rootUri": "file:///C:/flutter/.pub-cache/hosted/pub.dartlang.org/dio-4.0.1",
      "packageUri": "lib/",
      "languageVersion": "2.12"
    },
    {
      "name": "elastic_client",
      "rootUri": "file:///C:/flutter/.pub-cache/hosted/pub.dartlang.org/elastic_client-0.3.8",
      "packageUri": "lib/",
      "languageVersion": "2.12"
    },
    {
      "name": "executor",
      "rootUri": "file:///C:/flutter/.pub-cache/hosted/pub.dartlang.org/executor-2.2.2",
      "packageUri": "lib/",
      "languageVersion": "2.12"
    },
    {
      "name": "extended_image",
      "rootUri": "file:///C:/flutter/.pub-cache/hosted/pub.dartlang.org/extended_image-4.2.1",
      "packageUri": "lib/",
      "languageVersion": "2.12"
    },
    {
      "name": "extended_image_library",
      "rootUri": "file:///C:/flutter/.pub-cache/hosted/pub.dartlang.org/extended_image_library-3.1.0",
      "packageUri": "lib/",
      "languageVersion": "2.12"
    },
    {
      "name": "fake_async",
      "rootUri": "file:///C:/flutter/.pub-cache/hosted/pub.dartlang.org/fake_async-1.2.0",
      "packageUri": "lib/",
      "languageVersion": "2.12"
    },
    {
      "name": "faker",
      "rootUri": "file:///C:/flutter/.pub-cache/hosted/pub.dartlang.org/faker-2.0.0",
      "packageUri": "lib/",
      "languageVersion": "2.12"
    },
    {
      "name": "ffi",
      "rootUri": "file:///C:/flutter/.pub-cache/hosted/pub.dartlang.org/ffi-1.1.2",
      "packageUri": "lib/",
      "languageVersion": "2.12"
    },
    {
      "name": "file",
      "rootUri": "file:///C:/flutter/.pub-cache/hosted/pub.dartlang.org/file-6.1.2",
      "packageUri": "lib/",
      "languageVersion": "2.12"
    },
    {
      "name": "firebase",
      "rootUri": "file:///C:/flutter/.pub-cache/hosted/pub.dartlang.org/firebase-9.0.2",
      "packageUri": "lib/",
      "languageVersion": "2.12"
    },
    {
      "name": "firebase_analytics",
      "rootUri": "file:///C:/flutter/.pub-cache/hosted/pub.dartlang.org/firebase_analytics-8.3.4",
      "packageUri": "lib/",
      "languageVersion": "2.12"
    },
    {
      "name": "firebase_analytics_platform_interface",
      "rootUri": "file:///C:/flutter/.pub-cache/hosted/pub.dartlang.org/firebase_analytics_platform_interface-2.0.1",
      "packageUri": "lib/",
      "languageVersion": "2.12"
    },
    {
      "name": "firebase_analytics_web",
      "rootUri": "file:///C:/flutter/.pub-cache/hosted/pub.dartlang.org/firebase_analytics_web-0.3.0+1",
      "packageUri": "lib/",
      "languageVersion": "2.12"
    },
    {
      "name": "firebase_auth",
      "rootUri": "file:///C:/flutter/.pub-cache/hosted/pub.dartlang.org/firebase_auth-3.1.4",
      "packageUri": "lib/",
      "languageVersion": "2.12"
    },
    {
      "name": "firebase_auth_platform_interface",
      "rootUri": "file:///C:/flutter/.pub-cache/hosted/pub.dartlang.org/firebase_auth_platform_interface-6.1.2",
      "packageUri": "lib/",
      "languageVersion": "2.12"
    },
    {
      "name": "firebase_auth_web",
      "rootUri": "file:///C:/flutter/.pub-cache/hosted/pub.dartlang.org/firebase_auth_web-3.1.3",
      "packageUri": "lib/",
      "languageVersion": "2.12"
    },
    {
      "name": "firebase_core",
      "rootUri": "file:///C:/flutter/.pub-cache/hosted/pub.dartlang.org/firebase_core-1.8.0",
      "packageUri": "lib/",
      "languageVersion": "2.12"
    },
    {
      "name": "firebase_core_platform_interface",
      "rootUri": "file:///C:/flutter/.pub-cache/hosted/pub.dartlang.org/firebase_core_platform_interface-4.0.1",
      "packageUri": "lib/",
      "languageVersion": "2.12"
    },
    {
      "name": "firebase_core_web",
      "rootUri": "file:///C:/flutter/.pub-cache/hosted/pub.dartlang.org/firebase_core_web-1.1.0",
      "packageUri": "lib/",
      "languageVersion": "2.12"
    },
    {
      "name": "firebase_crashlytics",
      "rootUri": "file:///C:/flutter/.pub-cache/hosted/pub.dartlang.org/firebase_crashlytics-2.2.4",
      "packageUri": "lib/",
      "languageVersion": "2.12"
    },
    {
      "name": "firebase_crashlytics_platform_interface",
      "rootUri": "file:///C:/flutter/.pub-cache/hosted/pub.dartlang.org/firebase_crashlytics_platform_interface-3.1.4",
      "packageUri": "lib/",
      "languageVersion": "2.12"
    },
    {
      "name": "firebase_database",
      "rootUri": "file:///C:/flutter/.pub-cache/hosted/pub.dartlang.org/firebase_database-8.0.1",
      "packageUri": "lib/",
      "languageVersion": "2.12"
    },
    {
      "name": "firebase_database_platform_interface",
      "rootUri": "file:///C:/flutter/.pub-cache/hosted/pub.dartlang.org/firebase_database_platform_interface-0.1.0+1",
      "packageUri": "lib/",
      "languageVersion": "2.12"
    },
    {
      "name": "firebase_database_web",
      "rootUri": "file:///C:/flutter/.pub-cache/hosted/pub.dartlang.org/firebase_database_web-0.1.0+1",
      "packageUri": "lib/",
      "languageVersion": "2.12"
    },
    {
      "name": "firebase_messaging",
      "rootUri": "file:///C:/flutter/.pub-cache/hosted/pub.dartlang.org/firebase_messaging-10.0.9",
      "packageUri": "lib/",
      "languageVersion": "2.12"
    },
    {
      "name": "firebase_messaging_platform_interface",
      "rootUri": "file:///C:/flutter/.pub-cache/hosted/pub.dartlang.org/firebase_messaging_platform_interface-3.0.7",
      "packageUri": "lib/",
      "languageVersion": "2.12"
    },
    {
      "name": "firebase_messaging_web",
      "rootUri": "file:///C:/flutter/.pub-cache/hosted/pub.dartlang.org/firebase_messaging_web-2.0.7",
      "packageUri": "lib/",
      "languageVersion": "2.12"
    },
    {
      "name": "firebase_remote_config",
      "rootUri": "file:///C:/flutter/.pub-cache/hosted/pub.dartlang.org/firebase_remote_config-0.11.0+2",
      "packageUri": "lib/",
      "languageVersion": "2.12"
    },
    {
      "name": "firebase_remote_config_platform_interface",
      "rootUri": "file:///C:/flutter/.pub-cache/hosted/pub.dartlang.org/firebase_remote_config_platform_interface-0.3.0+7",
      "packageUri": "lib/",
      "languageVersion": "2.12"
    },
    {
      "name": "firebase_storage",
      "rootUri": "file:///C:/flutter/.pub-cache/hosted/pub.dartlang.org/firebase_storage-10.0.6",
      "packageUri": "lib/",
      "languageVersion": "2.12"
    },
    {
      "name": "firebase_storage_platform_interface",
      "rootUri": "file:///C:/flutter/.pub-cache/hosted/pub.dartlang.org/firebase_storage_platform_interface-4.0.4",
      "packageUri": "lib/",
      "languageVersion": "2.12"
    },
    {
      "name": "firebase_storage_web",
      "rootUri": "file:///C:/flutter/.pub-cache/hosted/pub.dartlang.org/firebase_storage_web-3.0.4",
      "packageUri": "lib/",
      "languageVersion": "2.12"
    },
    {
      "name": "fixnum",
      "rootUri": "file:///C:/flutter/.pub-cache/hosted/pub.dartlang.org/fixnum-1.0.0",
      "packageUri": "lib/",
      "languageVersion": "2.12"
    },
    {
      "name": "flutter",
      "rootUri": "file:///C:/flutter/packages/flutter",
      "packageUri": "lib/",
      "languageVersion": "2.12"
    },
    {
      "name": "flutter_blurhash",
      "rootUri": "file:///C:/flutter/.pub-cache/hosted/pub.dartlang.org/flutter_blurhash-0.6.0",
      "packageUri": "lib/",
      "languageVersion": "2.12"
    },
    {
      "name": "flutter_cache_manager",
      "rootUri": "file:///C:/flutter/.pub-cache/hosted/pub.dartlang.org/flutter_cache_manager-3.1.2",
      "packageUri": "lib/",
      "languageVersion": "2.12"
    },
    {
      "name": "flutter_easyloading",
      "rootUri": "file:///C:/flutter/.pub-cache/hosted/pub.dartlang.org/flutter_easyloading-3.0.3",
      "packageUri": "lib/",
      "languageVersion": "2.12"
    },
    {
      "name": "flutter_fgbg",
      "rootUri": "file:///C:/flutter/.pub-cache/hosted/pub.dartlang.org/flutter_fgbg-0.1.0",
      "packageUri": "lib/",
      "languageVersion": "2.12"
    },
    {
      "name": "flutter_image_compress",
      "rootUri": "file:///C:/flutter/.pub-cache/hosted/pub.dartlang.org/flutter_image_compress-1.1.0",
      "packageUri": "lib/",
      "languageVersion": "2.12"
    },
    {
      "name": "flutter_kakao_login",
      "rootUri": "file:///C:/flutter/.pub-cache/hosted/pub.dartlang.org/flutter_kakao_login-3.4.0",
      "packageUri": "lib/",
      "languageVersion": "2.12"
    },
    {
      "name": "flutter_launcher_icons",
      "rootUri": "file:///C:/flutter/.pub-cache/hosted/pub.dartlang.org/flutter_launcher_icons-0.9.2",
      "packageUri": "lib/",
      "languageVersion": "2.12"
    },
    {
      "name": "flutter_lints",
      "rootUri": "file:///C:/flutter/.pub-cache/hosted/pub.dartlang.org/flutter_lints-1.0.4",
      "packageUri": "lib/",
      "languageVersion": "2.12"
    },
    {
      "name": "flutter_local_notifications",
      "rootUri": "file:///C:/flutter/.pub-cache/hosted/pub.dartlang.org/flutter_local_notifications-6.1.1",
      "packageUri": "lib/",
      "languageVersion": "2.12"
    },
    {
      "name": "flutter_local_notifications_platform_interface",
      "rootUri": "file:///C:/flutter/.pub-cache/hosted/pub.dartlang.org/flutter_local_notifications_platform_interface-4.0.1",
      "packageUri": "lib/",
      "languageVersion": "2.12"
    },
    {
      "name": "flutter_localizations",
      "rootUri": "file:///C:/flutter/packages/flutter_localizations",
      "packageUri": "lib/",
      "languageVersion": "2.12"
    },
    {
      "name": "flutter_multi_formatter",
      "rootUri": "file:///C:/flutter/.pub-cache/hosted/pub.dartlang.org/flutter_multi_formatter-2.4.1",
      "packageUri": "lib/",
      "languageVersion": "2.12"
    },
    {
      "name": "flutter_native_splash",
      "rootUri": "file:///C:/flutter/.pub-cache/hosted/pub.dartlang.org/flutter_native_splash-1.2.4",
      "packageUri": "lib/",
      "languageVersion": "2.12"
    },
    {
      "name": "flutter_plugin_android_lifecycle",
      "rootUri": "file:///C:/flutter/.pub-cache/hosted/pub.dartlang.org/flutter_plugin_android_lifecycle-2.0.4",
      "packageUri": "lib/",
      "languageVersion": "2.12"
    },
    {
      "name": "flutter_signin_button",
      "rootUri": "file:///C:/flutter/.pub-cache/hosted/pub.dartlang.org/flutter_signin_button-2.0.0",
      "packageUri": "lib/",
      "languageVersion": "2.12"
    },
    {
      "name": "flutter_spinkit",
      "rootUri": "file:///C:/flutter/.pub-cache/hosted/pub.dartlang.org/flutter_spinkit-5.1.0",
      "packageUri": "lib/",
      "languageVersion": "2.12"
    },
    {
      "name": "flutter_svg",
      "rootUri": "file:///C:/flutter/.pub-cache/hosted/pub.dartlang.org/flutter_svg-0.22.0",
      "packageUri": "lib/",
      "languageVersion": "2.12"
    },
    {
      "name": "flutter_test",
      "rootUri": "file:///C:/flutter/packages/flutter_test",
      "packageUri": "lib/",
      "languageVersion": "2.12"
    },
    {
      "name": "flutter_web_auth",
      "rootUri": "file:///C:/flutter/.pub-cache/hosted/pub.dartlang.org/flutter_web_auth-0.3.1",
      "packageUri": "lib/",
      "languageVersion": "2.12"
    },
    {
      "name": "flutter_web_plugins",
      "rootUri": "file:///C:/flutter/packages/flutter_web_plugins",
      "packageUri": "lib/",
      "languageVersion": "2.12"
    },
    {
      "name": "font_awesome_flutter",
      "rootUri": "file:///C:/flutter/.pub-cache/hosted/pub.dartlang.org/font_awesome_flutter-9.2.0",
      "packageUri": "lib/",
      "languageVersion": "2.12"
    },
    {
      "name": "freezed_annotation",
      "rootUri": "file:///C:/flutter/.pub-cache/hosted/pub.dartlang.org/freezed_annotation-0.14.3",
      "packageUri": "lib/",
      "languageVersion": "2.12"
    },
    {
      "name": "frontend_server_client",
      "rootUri": "file:///C:/flutter/.pub-cache/hosted/pub.dartlang.org/frontend_server_client-2.1.2",
      "packageUri": "lib/",
      "languageVersion": "2.12"
    },
    {
      "name": "geocoding",
      "rootUri": "file:///C:/flutter/.pub-cache/hosted/pub.dartlang.org/geocoding-2.0.1",
      "packageUri": "lib/",
      "languageVersion": "2.12"
    },
    {
      "name": "geocoding_platform_interface",
      "rootUri": "file:///C:/flutter/.pub-cache/hosted/pub.dartlang.org/geocoding_platform_interface-2.0.1",
      "packageUri": "lib/",
      "languageVersion": "2.12"
    },
    {
      "name": "geolocator",
      "rootUri": "file:///C:/flutter/.pub-cache/hosted/pub.dartlang.org/geolocator-7.7.1",
      "packageUri": "lib/",
      "languageVersion": "2.12"
    },
    {
      "name": "geolocator_android",
      "rootUri": "file:///C:/flutter/.pub-cache/hosted/pub.dartlang.org/geolocator_android-2.1.0",
      "packageUri": "lib/",
      "languageVersion": "2.12"
    },
    {
      "name": "geolocator_apple",
      "rootUri": "file:///C:/flutter/.pub-cache/hosted/pub.dartlang.org/geolocator_apple-1.2.2",
      "packageUri": "lib/",
      "languageVersion": "2.12"
    },
    {
      "name": "geolocator_platform_interface",
      "rootUri": "file:///C:/flutter/.pub-cache/hosted/pub.dartlang.org/geolocator_platform_interface-2.3.6",
      "packageUri": "lib/",
      "languageVersion": "2.12"
    },
    {
      "name": "geolocator_web",
      "rootUri": "file:///C:/flutter/.pub-cache/hosted/pub.dartlang.org/geolocator_web-2.0.6",
      "packageUri": "lib/",
      "languageVersion": "2.12"
    },
    {
      "name": "get",
      "rootUri": "file:///C:/flutter/.pub-cache/hosted/pub.dartlang.org/get-4.3.8",
      "packageUri": "lib/",
      "languageVersion": "2.12"
    },
    {
      "name": "glob",
      "rootUri": "file:///C:/flutter/.pub-cache/hosted/pub.dartlang.org/glob-2.0.2",
      "packageUri": "lib/",
      "languageVersion": "2.14"
    },
    {
      "name": "google_sign_in",
      "rootUri": "file:///C:/flutter/.pub-cache/hosted/pub.dartlang.org/google_sign_in-5.2.0",
      "packageUri": "lib/",
      "languageVersion": "2.14"
    },
    {
      "name": "google_sign_in_platform_interface",
      "rootUri": "file:///C:/flutter/.pub-cache/hosted/pub.dartlang.org/google_sign_in_platform_interface-2.1.0",
      "packageUri": "lib/",
      "languageVersion": "2.12"
    },
    {
      "name": "google_sign_in_web",
      "rootUri": "file:///C:/flutter/.pub-cache/hosted/pub.dartlang.org/google_sign_in_web-0.10.0+3",
      "packageUri": "lib/",
      "languageVersion": "2.12"
    },
    {
      "name": "graphs",
      "rootUri": "file:///C:/flutter/.pub-cache/hosted/pub.dartlang.org/graphs-2.1.0",
      "packageUri": "lib/",
      "languageVersion": "2.12"
    },
    {
      "name": "heic_to_jpg",
      "rootUri": "file:///C:/flutter/.pub-cache/hosted/pub.dartlang.org/heic_to_jpg-0.2.0",
      "packageUri": "lib/",
      "languageVersion": "2.12"
    },
    {
      "name": "hive",
      "rootUri": "file:///C:/flutter/.pub-cache/hosted/pub.dartlang.org/hive-2.0.4",
      "packageUri": "lib/",
      "languageVersion": "2.12"
    },
    {
      "name": "hive_flutter",
      "rootUri": "file:///C:/flutter/.pub-cache/hosted/pub.dartlang.org/hive_flutter-1.1.0",
      "packageUri": "lib/",
      "languageVersion": "2.12"
    },
    {
      "name": "hive_generator",
      "rootUri": "file:///C:/flutter/.pub-cache/hosted/pub.dartlang.org/hive_generator-1.1.1",
      "packageUri": "lib/",
      "languageVersion": "2.12"
    },
    {
      "name": "html",
      "rootUri": "file:///C:/flutter/.pub-cache/hosted/pub.dartlang.org/html-0.15.0",
      "packageUri": "lib/",
      "languageVersion": "2.12"
    },
    {
      "name": "http",
      "rootUri": "file:///C:/flutter/.pub-cache/hosted/pub.dartlang.org/http-0.13.4",
      "packageUri": "lib/",
      "languageVersion": "2.14"
    },
    {
      "name": "http_client",
      "rootUri": "file:///C:/flutter/.pub-cache/hosted/pub.dartlang.org/http_client-1.5.1",
      "packageUri": "lib/",
      "languageVersion": "2.12"
    },
    {
      "name": "http_client_helper",
      "rootUri": "file:///C:/flutter/.pub-cache/hosted/pub.dartlang.org/http_client_helper-2.0.2",
      "packageUri": "lib/",
      "languageVersion": "2.12"
    },
    {
      "name": "http_multi_server",
      "rootUri": "file:///C:/flutter/.pub-cache/hosted/pub.dartlang.org/http_multi_server-3.0.1",
      "packageUri": "lib/",
      "languageVersion": "2.12"
    },
    {
      "name": "http_parser",
      "rootUri": "file:///C:/flutter/.pub-cache/hosted/pub.dartlang.org/http_parser-4.0.0",
      "packageUri": "lib/",
      "languageVersion": "2.12"
    },
    {
      "name": "image",
      "rootUri": "file:///C:/flutter/.pub-cache/hosted/pub.dartlang.org/image-3.0.8",
      "packageUri": "lib/",
      "languageVersion": "2.12"
    },
    {
      "name": "image_picker",
      "rootUri": "file:///C:/flutter/.pub-cache/hosted/pub.dartlang.org/image_picker-0.8.4+3",
      "packageUri": "lib/",
      "languageVersion": "2.14"
    },
    {
      "name": "image_picker_for_web",
      "rootUri": "file:///C:/flutter/.pub-cache/hosted/pub.dartlang.org/image_picker_for_web-2.1.4",
      "packageUri": "lib/",
      "languageVersion": "2.12"
    },
    {
      "name": "image_picker_platform_interface",
      "rootUri": "file:///C:/flutter/.pub-cache/hosted/pub.dartlang.org/image_picker_platform_interface-2.4.1",
      "packageUri": "lib/",
      "languageVersion": "2.12"
    },
    {
      "name": "images_picker",
      "rootUri": "file:///C:/flutter/.pub-cache/hosted/pub.dartlang.org/images_picker-1.2.4",
      "packageUri": "lib/",
      "languageVersion": "2.12"
    },
    {
      "name": "intl",
      "rootUri": "file:///C:/flutter/.pub-cache/hosted/pub.dartlang.org/intl-0.17.0",
      "packageUri": "lib/",
      "languageVersion": "2.12"
    },
    {
      "name": "io",
      "rootUri": "file:///C:/flutter/.pub-cache/hosted/pub.dartlang.org/io-1.0.3",
      "packageUri": "lib/",
      "languageVersion": "2.12"
    },
    {
      "name": "js",
      "rootUri": "file:///C:/flutter/.pub-cache/hosted/pub.dartlang.org/js-0.6.3",
      "packageUri": "lib/",
      "languageVersion": "2.12"
    },
    {
      "name": "json_annotation",
      "rootUri": "file:///C:/flutter/.pub-cache/hosted/pub.dartlang.org/json_annotation-4.3.0",
      "packageUri": "lib/",
      "languageVersion": "2.14"
    },
    {
      "name": "kakao_flutter_sdk",
      "rootUri": "file:///C:/flutter/.pub-cache/hosted/pub.dartlang.org/kakao_flutter_sdk-0.7.1",
      "packageUri": "lib/",
      "languageVersion": "2.12"
    },
    {
      "name": "kakaomap_webview",
      "rootUri": "file:///C:/flutter/.pub-cache/hosted/pub.dartlang.org/kakaomap_webview-0.3.0",
      "packageUri": "lib/",
      "languageVersion": "2.12"
    },
    {
      "name": "keyboard_actions",
      "rootUri": "file:///C:/flutter/.pub-cache/hosted/pub.dartlang.org/keyboard_actions-3.4.4",
      "packageUri": "lib/",
      "languageVersion": "2.12"
    },
    {
      "name": "keyboard_dismisser",
      "rootUri": "file:///C:/flutter/.pub-cache/hosted/pub.dartlang.org/keyboard_dismisser-2.0.0",
      "packageUri": "lib/",
      "languageVersion": "2.12"
    },
    {
      "name": "lints",
      "rootUri": "file:///C:/flutter/.pub-cache/hosted/pub.dartlang.org/lints-1.0.1",
      "packageUri": "lib/",
      "languageVersion": "2.12"
    },
    {
      "name": "location",
      "rootUri": "file:///C:/flutter/.pub-cache/hosted/pub.dartlang.org/location-4.3.0",
      "packageUri": "lib/",
      "languageVersion": "2.12"
    },
    {
      "name": "location_platform_interface",
      "rootUri": "file:///C:/flutter/.pub-cache/hosted/pub.dartlang.org/location_platform_interface-2.3.0",
      "packageUri": "lib/",
      "languageVersion": "2.12"
    },
    {
      "name": "location_web",
      "rootUri": "file:///C:/flutter/.pub-cache/hosted/pub.dartlang.org/location_web-3.1.1",
      "packageUri": "lib/",
      "languageVersion": "2.12"
    },
    {
      "name": "logging",
      "rootUri": "file:///C:/flutter/.pub-cache/hosted/pub.dartlang.org/logging-1.0.2",
      "packageUri": "lib/",
      "languageVersion": "2.12"
    },
    {
      "name": "matcher",
      "rootUri": "file:///C:/flutter/.pub-cache/hosted/pub.dartlang.org/matcher-0.12.10",
      "packageUri": "lib/",
      "languageVersion": "2.12"
    },
    {
      "name": "meta",
      "rootUri": "file:///C:/flutter/.pub-cache/hosted/pub.dartlang.org/meta-1.7.0",
      "packageUri": "lib/",
      "languageVersion": "2.12"
    },
    {
      "name": "mime",
      "rootUri": "file:///C:/flutter/.pub-cache/hosted/pub.dartlang.org/mime-1.0.1",
      "packageUri": "lib/",
      "languageVersion": "2.12"
    },
    {
      "name": "nested",
      "rootUri": "file:///C:/flutter/.pub-cache/hosted/pub.dartlang.org/nested-1.0.0",
      "packageUri": "lib/",
      "languageVersion": "2.12"
    },
    {
      "name": "new_version",
      "rootUri": "file:///C:/flutter/.pub-cache/hosted/pub.dartlang.org/new_version-0.2.3",
      "packageUri": "lib/",
      "languageVersion": "2.12"
    },
    {
      "name": "nm",
      "rootUri": "file:///C:/flutter/.pub-cache/hosted/pub.dartlang.org/nm-0.3.0",
      "packageUri": "lib/",
      "languageVersion": "2.12"
    },
    {
      "name": "ntp",
      "rootUri": "file:///C:/flutter/.pub-cache/hosted/pub.dartlang.org/ntp-2.0.0",
      "packageUri": "lib/",
      "languageVersion": "2.12"
    },
    {
      "name": "octo_image",
      "rootUri": "file:///C:/flutter/.pub-cache/hosted/pub.dartlang.org/octo_image-1.0.0+1",
      "packageUri": "lib/",
      "languageVersion": "2.12"
    },
    {
      "name": "package_config",
      "rootUri": "file:///C:/flutter/.pub-cache/hosted/pub.dartlang.org/package_config-2.0.2",
      "packageUri": "lib/",
      "languageVersion": "2.12"
    },
    {
      "name": "package_info_plus",
      "rootUri": "file:///C:/flutter/.pub-cache/hosted/pub.dartlang.org/package_info_plus-1.3.0",
      "packageUri": "lib/",
      "languageVersion": "2.12"
    },
    {
      "name": "package_info_plus_linux",
      "rootUri": "file:///C:/flutter/.pub-cache/hosted/pub.dartlang.org/package_info_plus_linux-1.0.3",
      "packageUri": "lib/",
      "languageVersion": "2.12"
    },
    {
      "name": "package_info_plus_macos",
      "rootUri": "file:///C:/flutter/.pub-cache/hosted/pub.dartlang.org/package_info_plus_macos-1.3.0",
      "packageUri": "lib/",
      "languageVersion": "2.12"
    },
    {
      "name": "package_info_plus_platform_interface",
      "rootUri": "file:///C:/flutter/.pub-cache/hosted/pub.dartlang.org/package_info_plus_platform_interface-1.0.2",
      "packageUri": "lib/",
      "languageVersion": "2.12"
    },
    {
      "name": "package_info_plus_web",
      "rootUri": "file:///C:/flutter/.pub-cache/hosted/pub.dartlang.org/package_info_plus_web-1.0.4",
      "packageUri": "lib/",
      "languageVersion": "2.12"
    },
    {
      "name": "package_info_plus_windows",
      "rootUri": "file:///C:/flutter/.pub-cache/hosted/pub.dartlang.org/package_info_plus_windows-1.0.4",
      "packageUri": "lib/",
      "languageVersion": "2.12"
    },
    {
      "name": "path",
      "rootUri": "file:///C:/flutter/.pub-cache/hosted/pub.dartlang.org/path-1.8.0",
      "packageUri": "lib/",
      "languageVersion": "2.12"
    },
    {
      "name": "path_drawing",
      "rootUri": "file:///C:/flutter/.pub-cache/hosted/pub.dartlang.org/path_drawing-0.5.1+1",
      "packageUri": "lib/",
      "languageVersion": "2.12"
    },
    {
      "name": "path_parsing",
      "rootUri": "file:///C:/flutter/.pub-cache/hosted/pub.dartlang.org/path_parsing-0.2.1",
      "packageUri": "lib/",
      "languageVersion": "2.12"
    },
    {
      "name": "path_provider",
      "rootUri": "file:///C:/flutter/.pub-cache/hosted/pub.dartlang.org/path_provider-2.0.5",
      "packageUri": "lib/",
      "languageVersion": "2.14"
    },
    {
      "name": "path_provider_linux",
      "rootUri": "file:///C:/flutter/.pub-cache/hosted/pub.dartlang.org/path_provider_linux-2.1.0",
      "packageUri": "lib/",
      "languageVersion": "2.12"
    },
    {
      "name": "path_provider_macos",
      "rootUri": "file:///C:/flutter/.pub-cache/hosted/pub.dartlang.org/path_provider_macos-2.0.2",
      "packageUri": "lib/",
      "languageVersion": "2.12"
    },
    {
      "name": "path_provider_platform_interface",
      "rootUri": "file:///C:/flutter/.pub-cache/hosted/pub.dartlang.org/path_provider_platform_interface-2.0.1",
      "packageUri": "lib/",
      "languageVersion": "2.12"
    },
    {
      "name": "path_provider_windows",
      "rootUri": "file:///C:/flutter/.pub-cache/hosted/pub.dartlang.org/path_provider_windows-2.0.3",
      "packageUri": "lib/",
      "languageVersion": "2.12"
    },
    {
      "name": "pedantic",
      "rootUri": "file:///C:/flutter/.pub-cache/hosted/pub.dartlang.org/pedantic-1.11.1",
      "packageUri": "lib/",
      "languageVersion": "2.12"
    },
    {
      "name": "permission_handler",
      "rootUri": "file:///C:/flutter/.pub-cache/hosted/pub.dartlang.org/permission_handler-8.2.5",
      "packageUri": "lib/",
      "languageVersion": "2.12"
    },
    {
      "name": "permission_handler_platform_interface",
      "rootUri": "file:///C:/flutter/.pub-cache/hosted/pub.dartlang.org/permission_handler_platform_interface-3.7.0",
      "packageUri": "lib/",
      "languageVersion": "2.14"
    },
    {
      "name": "petitparser",
      "rootUri": "file:///C:/flutter/.pub-cache/hosted/pub.dartlang.org/petitparser-4.4.0",
      "packageUri": "lib/",
      "languageVersion": "2.14"
    },
    {
      "name": "photo_manager",
      "rootUri": "file:///C:/flutter/.pub-cache/hosted/pub.dartlang.org/photo_manager-1.3.9+1",
      "packageUri": "lib/",
      "languageVersion": "2.12"
    },
    {
      "name": "platform",
      "rootUri": "file:///C:/flutter/.pub-cache/hosted/pub.dartlang.org/platform-3.0.2",
      "packageUri": "lib/",
      "languageVersion": "2.12"
    },
    {
      "name": "plugin_platform_interface",
      "rootUri": "file:///C:/flutter/.pub-cache/hosted/pub.dartlang.org/plugin_platform_interface-2.0.2",
      "packageUri": "lib/",
      "languageVersion": "2.12"
    },
    {
      "name": "pool",
      "rootUri": "file:///C:/flutter/.pub-cache/hosted/pub.dartlang.org/pool-1.5.0",
      "packageUri": "lib/",
      "languageVersion": "2.12"
    },
    {
      "name": "process",
      "rootUri": "file:///C:/flutter/.pub-cache/hosted/pub.dartlang.org/process-4.2.4",
      "packageUri": "lib/",
      "languageVersion": "2.14"
    },
    {
      "name": "provider",
      "rootUri": "file:///C:/flutter/.pub-cache/hosted/pub.dartlang.org/provider-5.0.0",
      "packageUri": "lib/",
      "languageVersion": "2.12"
    },
    {
      "name": "pub_semver",
      "rootUri": "file:///C:/flutter/.pub-cache/hosted/pub.dartlang.org/pub_semver-2.1.0",
      "packageUri": "lib/",
      "languageVersion": "2.12"
    },
    {
      "name": "pubspec_parse",
      "rootUri": "file:///C:/flutter/.pub-cache/hosted/pub.dartlang.org/pubspec_parse-1.1.0",
      "packageUri": "lib/",
      "languageVersion": "2.12"
    },
    {
      "name": "quiver",
      "rootUri": "file:///C:/flutter/.pub-cache/hosted/pub.dartlang.org/quiver-3.0.1+1",
      "packageUri": "lib/",
      "languageVersion": "2.12"
    },
    {
      "name": "rxdart",
      "rootUri": "file:///C:/flutter/.pub-cache/hosted/pub.dartlang.org/rxdart-0.27.2",
      "packageUri": "lib/",
      "languageVersion": "2.12"
    },
    {
      "name": "shared_preferences",
      "rootUri": "file:///C:/flutter/.pub-cache/hosted/pub.dartlang.org/shared_preferences-2.0.8",
      "packageUri": "lib/",
      "languageVersion": "2.14"
    },
    {
      "name": "shared_preferences_linux",
      "rootUri": "file:///C:/flutter/.pub-cache/hosted/pub.dartlang.org/shared_preferences_linux-2.0.2",
      "packageUri": "lib/",
      "languageVersion": "2.12"
    },
    {
      "name": "shared_preferences_macos",
      "rootUri": "file:///C:/flutter/.pub-cache/hosted/pub.dartlang.org/shared_preferences_macos-2.0.2",
      "packageUri": "lib/",
      "languageVersion": "2.12"
    },
    {
      "name": "shared_preferences_platform_interface",
      "rootUri": "file:///C:/flutter/.pub-cache/hosted/pub.dartlang.org/shared_preferences_platform_interface-2.0.0",
      "packageUri": "lib/",
      "languageVersion": "2.12"
    },
    {
      "name": "shared_preferences_web",
      "rootUri": "file:///C:/flutter/.pub-cache/hosted/pub.dartlang.org/shared_preferences_web-2.0.2",
      "packageUri": "lib/",
      "languageVersion": "2.12"
    },
    {
      "name": "shared_preferences_windows",
      "rootUri": "file:///C:/flutter/.pub-cache/hosted/pub.dartlang.org/shared_preferences_windows-2.0.2",
      "packageUri": "lib/",
      "languageVersion": "2.12"
    },
    {
      "name": "shelf",
      "rootUri": "file:///C:/flutter/.pub-cache/hosted/pub.dartlang.org/shelf-1.2.0",
      "packageUri": "lib/",
      "languageVersion": "2.12"
    },
    {
      "name": "shelf_web_socket",
      "rootUri": "file:///C:/flutter/.pub-cache/hosted/pub.dartlang.org/shelf_web_socket-1.0.1",
      "packageUri": "lib/",
      "languageVersion": "2.12"
    },
    {
      "name": "sign_in_with_apple",
      "rootUri": "file:///C:/flutter/.pub-cache/hosted/pub.dartlang.org/sign_in_with_apple-3.2.0",
      "packageUri": "lib/",
      "languageVersion": "2.12"
    },
    {
      "name": "sky_engine",
      "rootUri": "file:///C:/flutter/bin/cache/pkg/sky_engine",
      "packageUri": "lib/",
      "languageVersion": "2.12"
    },
    {
      "name": "source_gen",
      "rootUri": "file:///C:/flutter/.pub-cache/hosted/pub.dartlang.org/source_gen-1.1.1",
      "packageUri": "lib/",
      "languageVersion": "2.12"
    },
    {
      "name": "source_helper",
      "rootUri": "file:///C:/flutter/.pub-cache/hosted/pub.dartlang.org/source_helper-1.3.0",
      "packageUri": "lib/",
      "languageVersion": "2.12"
    },
    {
      "name": "source_span",
      "rootUri": "file:///C:/flutter/.pub-cache/hosted/pub.dartlang.org/source_span-1.8.1",
      "packageUri": "lib/",
      "languageVersion": "2.12"
    },
    {
      "name": "sqflite",
      "rootUri": "file:///C:/flutter/.pub-cache/hosted/pub.dartlang.org/sqflite-2.0.0+4",
      "packageUri": "lib/",
      "languageVersion": "2.12"
    },
    {
      "name": "sqflite_common",
      "rootUri": "file:///C:/flutter/.pub-cache/hosted/pub.dartlang.org/sqflite_common-2.0.1+1",
      "packageUri": "lib/",
      "languageVersion": "2.12"
    },
    {
      "name": "stack_trace",
      "rootUri": "file:///C:/flutter/.pub-cache/hosted/pub.dartlang.org/stack_trace-1.10.0",
      "packageUri": "lib/",
      "languageVersion": "2.12"
    },
    {
      "name": "stream_channel",
      "rootUri": "file:///C:/flutter/.pub-cache/hosted/pub.dartlang.org/stream_channel-2.1.0",
      "packageUri": "lib/",
      "languageVersion": "2.12"
    },
    {
      "name": "stream_transform",
      "rootUri": "file:///C:/flutter/.pub-cache/hosted/pub.dartlang.org/stream_transform-2.0.0",
      "packageUri": "lib/",
      "languageVersion": "2.12"
    },
    {
      "name": "string_scanner",
      "rootUri": "file:///C:/flutter/.pub-cache/hosted/pub.dartlang.org/string_scanner-1.1.0",
      "packageUri": "lib/",
      "languageVersion": "2.12"
    },
    {
      "name": "synchronized",
      "rootUri": "file:///C:/flutter/.pub-cache/hosted/pub.dartlang.org/synchronized-3.0.0",
      "packageUri": "lib/",
      "languageVersion": "2.12"
    },
    {
      "name": "term_glyph",
      "rootUri": "file:///C:/flutter/.pub-cache/hosted/pub.dartlang.org/term_glyph-1.2.0",
      "packageUri": "lib/",
      "languageVersion": "2.12"
    },
    {
      "name": "test_api",
      "rootUri": "file:///C:/flutter/.pub-cache/hosted/pub.dartlang.org/test_api-0.4.2",
      "packageUri": "lib/",
      "languageVersion": "2.12"
    },
    {
      "name": "timezone",
      "rootUri": "file:///C:/flutter/.pub-cache/hosted/pub.dartlang.org/timezone-0.7.0",
      "packageUri": "lib/",
      "languageVersion": "2.12"
    },
    {
      "name": "timing",
      "rootUri": "file:///C:/flutter/.pub-cache/hosted/pub.dartlang.org/timing-1.0.0",
      "packageUri": "lib/",
      "languageVersion": "2.12"
    },
    {
      "name": "transparent_image",
      "rootUri": "file:///C:/flutter/.pub-cache/hosted/pub.dartlang.org/transparent_image-2.0.0",
      "packageUri": "lib/",
      "languageVersion": "2.12"
    },
    {
      "name": "tuple",
      "rootUri": "file:///C:/flutter/.pub-cache/hosted/pub.dartlang.org/tuple-2.0.0",
      "packageUri": "lib/",
      "languageVersion": "2.12"
    },
    {
      "name": "typed_data",
      "rootUri": "file:///C:/flutter/.pub-cache/hosted/pub.dartlang.org/typed_data-1.3.0",
      "packageUri": "lib/",
      "languageVersion": "2.12"
    },
    {
      "name": "universal_io",
      "rootUri": "file:///C:/flutter/.pub-cache/hosted/pub.dartlang.org/universal_io-2.0.4",
      "packageUri": "lib/",
      "languageVersion": "2.12"
    },
    {
      "name": "url_launcher",
      "rootUri": "file:///C:/flutter/.pub-cache/hosted/pub.dartlang.org/url_launcher-6.0.12",
      "packageUri": "lib/",
      "languageVersion": "2.14"
    },
    {
      "name": "url_launcher_linux",
      "rootUri": "file:///C:/flutter/.pub-cache/hosted/pub.dartlang.org/url_launcher_linux-2.0.2",
      "packageUri": "lib/",
      "languageVersion": "2.12"
    },
    {
      "name": "url_launcher_macos",
      "rootUri": "file:///C:/flutter/.pub-cache/hosted/pub.dartlang.org/url_launcher_macos-2.0.2",
      "packageUri": "lib/",
      "languageVersion": "2.12"
    },
    {
      "name": "url_launcher_platform_interface",
      "rootUri": "file:///C:/flutter/.pub-cache/hosted/pub.dartlang.org/url_launcher_platform_interface-2.0.4",
      "packageUri": "lib/",
      "languageVersion": "2.12"
    },
    {
      "name": "url_launcher_web",
      "rootUri": "file:///C:/flutter/.pub-cache/hosted/pub.dartlang.org/url_launcher_web-2.0.4",
      "packageUri": "lib/",
      "languageVersion": "2.12"
    },
    {
      "name": "url_launcher_windows",
      "rootUri": "file:///C:/flutter/.pub-cache/hosted/pub.dartlang.org/url_launcher_windows-2.0.2",
      "packageUri": "lib/",
      "languageVersion": "2.12"
    },
    {
      "name": "uuid",
      "rootUri": "file:///C:/flutter/.pub-cache/hosted/pub.dartlang.org/uuid-3.0.5",
      "packageUri": "lib/",
      "languageVersion": "2.12"
    },
    {
      "name": "vector_math",
      "rootUri": "file:///C:/flutter/.pub-cache/hosted/pub.dartlang.org/vector_math-2.1.0",
      "packageUri": "lib/",
      "languageVersion": "2.12"
    },
    {
      "name": "version",
      "rootUri": "file:///C:/flutter/.pub-cache/hosted/pub.dartlang.org/version-2.0.0",
      "packageUri": "lib/",
      "languageVersion": "2.12"
    },
    {
      "name": "video_player",
      "rootUri": "file:///C:/flutter/.pub-cache/hosted/pub.dartlang.org/video_player-2.2.5",
      "packageUri": "lib/",
      "languageVersion": "2.14"
    },
    {
      "name": "video_player_platform_interface",
      "rootUri": "file:///C:/flutter/.pub-cache/hosted/pub.dartlang.org/video_player_platform_interface-4.2.0",
      "packageUri": "lib/",
      "languageVersion": "2.12"
    },
    {
      "name": "video_player_web",
      "rootUri": "file:///C:/flutter/.pub-cache/hosted/pub.dartlang.org/video_player_web-2.0.4",
      "packageUri": "lib/",
      "languageVersion": "2.12"
    },
    {
      "name": "watcher",
      "rootUri": "file:///C:/flutter/.pub-cache/hosted/pub.dartlang.org/watcher-1.0.1",
      "packageUri": "lib/",
      "languageVersion": "2.14"
    },
    {
      "name": "web_socket_channel",
      "rootUri": "file:///C:/flutter/.pub-cache/hosted/pub.dartlang.org/web_socket_channel-2.1.0",
      "packageUri": "lib/",
      "languageVersion": "2.12"
    },
    {
      "name": "webview_flutter",
      "rootUri": "file:///C:/flutter/.pub-cache/hosted/pub.dartlang.org/webview_flutter-2.1.2",
      "packageUri": "lib/",
      "languageVersion": "2.14"
    },
    {
      "name": "webview_flutter_android",
      "rootUri": "file:///C:/flutter/.pub-cache/hosted/pub.dartlang.org/webview_flutter_android-2.0.15",
      "packageUri": "lib/",
      "languageVersion": "2.14"
    },
    {
      "name": "webview_flutter_platform_interface",
      "rootUri": "file:///C:/flutter/.pub-cache/hosted/pub.dartlang.org/webview_flutter_platform_interface-1.2.0",
      "packageUri": "lib/",
      "languageVersion": "2.12"
    },
    {
      "name": "webview_flutter_wkwebview",
      "rootUri": "file:///C:/flutter/.pub-cache/hosted/pub.dartlang.org/webview_flutter_wkwebview-2.0.14",
      "packageUri": "lib/",
      "languageVersion": "2.14"
    },
    {
      "name": "wechat_assets_picker",
      "rootUri": "file:///C:/flutter/.pub-cache/hosted/pub.dartlang.org/wechat_assets_picker-5.5.8",
      "packageUri": "lib/",
      "languageVersion": "2.12"
    },
    {
      "name": "win32",
      "rootUri": "file:///C:/flutter/.pub-cache/hosted/pub.dartlang.org/win32-2.2.10",
      "packageUri": "lib/",
      "languageVersion": "2.13"
    },
    {
      "name": "xdg_directories",
      "rootUri": "file:///C:/flutter/.pub-cache/hosted/pub.dartlang.org/xdg_directories-0.2.0",
      "packageUri": "lib/",
      "languageVersion": "2.12"
    },
    {
      "name": "xml",
      "rootUri": "file:///C:/flutter/.pub-cache/hosted/pub.dartlang.org/xml-5.3.1",
      "packageUri": "lib/",
      "languageVersion": "2.14"
    },
    {
      "name": "yaml",
      "rootUri": "file:///C:/flutter/.pub-cache/hosted/pub.dartlang.org/yaml-3.1.0",
      "packageUri": "lib/",
      "languageVersion": "2.12"
    },
    {
      "name": "zzin",
      "rootUri": "../",
      "packageUri": "lib/",
      "languageVersion": "2.12"
    }
  ],
  "generated": "2021-10-27T09:14:11.359593Z",
  "generator": "pub",
  "generatorVersion": "2.14.4"
}
